CO_Lab3/ALU_lab3.vcd
$date
	Wed Aug 11 03:44:29 2021
$end
$version
	Icarus Verilog
$end
$timescale
	1ps
$end
$scope module TestBench $end
$var reg 1 ! CLK $end
$var reg 1 " RST $end
$var reg 32 # addr [31:0] $end
$var reg 32 $ data [31:0] $end
$var reg 32 % instruction [31:0] $end
$var reg 4 & k [3:0] $end
$var reg 32 ' pc [31:0] $end
$var reg 5 ( rd [4:0] $end
$var reg 5 ) rs [4:0] $end
$var reg 5 * rt [4:0] $end
$var integer 32 + count [31:0] $end
$var integer 32 , error_record [31:0] $end
$var integer 32 - handle [31:0] $end
$var integer 32 . i [31:0] $end
$var integer 32 / initail_error [31:0] $end
$var integer 32 0 j [31:0] $end
$var integer 32 1 mode [31:0] $end
$var integer 32 2 score [31:0] $end
$scope module cpu $end
$var wire 1 ! clk_i $end
$var wire 1 3 jump $end
$var wire 1 4 overflow $end
$var wire 1 " rst_n $end
$var wire 32 5 zero_instr [31:0] $end
$var wire 1 6 zero $end
$var wire 32 7 sign_instr [31:0] $end
$var wire 32 8 shift_sign_instr [31:0] $end
$var wire 32 9 shift_instr_o [31:0] $end
$var wire 32 : rt_data [31:0] $end
$var wire 32 ; rs_data [31:0] $end
$var wire 32 < result_Shifter [31:0] $end
$var wire 32 = result_ALU [31:0] $end
$var wire 32 > pc_inst [31:0] $end
$var wire 32 ? next_pc [31:0] $end
$var wire 1 @ mux_zero $end
$var wire 32 A mux_mux_add_add_pc [31:0] $end
$var wire 32 B mux_add_add_pc [31:0] $end
$var wire 32 C mux3_result [31:0] $end
$var wire 1 D jr $end
$var wire 32 E instr_o [31:0] $end
$var wire 32 F add_pc [31:0] $end
$var wire 32 G add_add_pc [31:0] $end
$var wire 5 H Write_reg_j [4:0] $end
$var wire 5 I Write_reg [4:0] $end
$var wire 32 J Write_Data_j [31:0] $end
$var wire 32 K Write_Data [31:0] $end
$var wire 32 L Src_ALU_Shifter [31:0] $end
$var wire 5 M ShamtSrc [4:0] $end
$var wire 1 N RegWrite $end
$var wire 1 O RegDst $end
$var wire 1 P MemtoReg $end
$var wire 1 Q MemWrite $end
$var wire 1 R MemRead $end
$var wire 1 S Jump $end
$var wire 2 T FURslt [1:0] $end
$var wire 32 U DM_result [31:0] $end
$var wire 1 V BranchType $end
$var wire 1 W Branch $end
$var wire 1 X ALUSrc $end
$var wire 3 Y ALUOp [2:0] $end
$var wire 4 Z ALUCtrl [3:0] $end
$scope module AC $end
$var wire 6 [ funct_i [5:0] $end
$var wire 1 D jr_o $end
$var wire 2 \ FURslt_o [1:0] $end
$var wire 4 ] ALU_operation_o [3:0] $end
$var wire 3 ^ ALUOp_i [2:0] $end
$upscope $end
$scope module ALU $end
$var wire 4 _ ALU_operation_i [3:0] $end
$var wire 1 4 overflow $end
$var wire 1 6 zero $end
$var wire 32 ` aluSrc2 [31:0] $end
$var wire 32 a aluSrc1 [31:0] $end
$var reg 32 b result [31:0] $end
$upscope $end
$scope module ALU_src2Src $end
$var wire 1 X select_i $end
$var wire 32 c data_o [31:0] $end
$var wire 32 d data1_i [31:0] $end
$var wire 32 e data0_i [31:0] $end
$upscope $end
$scope module Adder1 $end
$var wire 32 f src2_i [31:0] $end
$var wire 32 g sum_o [31:0] $end
$var wire 32 h src1_i [31:0] $end
$upscope $end
$scope module Adder2 $end
$var wire 32 i src1_i [31:0] $end
$var wire 32 j sum_o [31:0] $end
$var wire 32 k src2_i [31:0] $end
$upscope $end
$scope module DM $end
$var wire 1 ! clk_i $end
$var wire 32 l data_i [31:0] $end
$var wire 32 m addr_i [31:0] $end
$var wire 1 Q MemWrite_i $end
$var wire 1 R MemRead_i $end
$var reg 32 n data_o [31:0] $end
$var integer 32 o i [31:0] $end
$upscope $end
$scope module Decoder $end
$var wire 1 R MemRead_o $end
$var wire 1 Q MemWrite_o $end
$var wire 1 N RegWrite_o $end
$var wire 6 p instr_op_i [5:0] $end
$var wire 1 O RegDst_o $end
$var wire 1 P MemtoReg_o $end
$var wire 1 S Jump_o $end
$var wire 1 W Branch_o $end
$var wire 1 V BranchType_o $end
$var wire 1 X ALUSrc_o $end
$var wire 3 q ALUOp_o [2:0] $end
$var reg 3 r ALUOp_o_r [2:0] $end
$var reg 1 X ALUSrc_o_r $end
$var reg 1 V BranchType_o_r $end
$var reg 1 W Branch_o_r $end
$var reg 1 S Jump_o_r $end
$var reg 1 s MemRead_o_r $end
$var reg 1 t MemWrite_o_r $end
$var reg 1 P MemtoReg_o_r $end
$var reg 1 O RegDst_o_r $end
$var reg 1 u RegWrite_o_r $end
$upscope $end
$scope module IM $end
$var wire 32 v pc_addr_i [31:0] $end
$var reg 32 w instr_o [31:0] $end
$var integer 32 x i [31:0] $end
$upscope $end
$scope module JUMP $end
$var wire 32 y data1_i [31:0] $end
$var wire 1 S select_i $end
$var wire 32 z data_o [31:0] $end
$var wire 32 { data0_i [31:0] $end
$upscope $end
$scope module Memto $end
$var wire 32 | data1_i [31:0] $end
$var wire 1 P select_i $end
$var wire 32 } data_o [31:0] $end
$var wire 32 ~ data0_i [31:0] $end
$upscope $end
$scope module Memto_jal $end
$var wire 32 !" data0_i [31:0] $end
$var wire 32 "" data1_i [31:0] $end
$var wire 1 3 select_i $end
$var wire 32 #" data_o [31:0] $end
$upscope $end
$scope module Mux_Write_Reg $end
$var wire 5 $" data0_i [4:0] $end
$var wire 5 %" data1_i [4:0] $end
$var wire 1 O select_i $end
$var wire 5 &" data_o [4:0] $end
$upscope $end
$scope module Mux_Write_Reg_jal $end
$var wire 5 '" data0_i [4:0] $end
$var wire 5 (" data1_i [4:0] $end
$var wire 1 3 select_i $end
$var wire 5 )" data_o [4:0] $end
$upscope $end
$scope module PC $end
$var wire 1 ! clk_i $end
$var wire 1 " rst_n $end
$var wire 32 *" pc_in_i [31:0] $end
$var reg 32 +" pc_out_o [31:0] $end
$upscope $end
$scope module RDdata_Source $end
$var wire 32 ," data0_i [31:0] $end
$var wire 2 -" select_i [1:0] $end
$var wire 32 ." data_o [31:0] $end
$var wire 32 /" data2_i [31:0] $end
$var wire 32 0" data1_i [31:0] $end
$upscope $end
$scope module RF $end
$var wire 5 1" RDaddr_i [4:0] $end
$var wire 32 2" RDdata_i [31:0] $end
$var wire 5 3" RSaddr_i [4:0] $end
$var wire 32 4" RSdata_o [31:0] $end
$var wire 5 5" RTaddr_i [4:0] $end
$var wire 32 6" RTdata_o [31:0] $end
$var wire 1 N RegWrite_i $end
$var wire 1 ! clk_i $end
$var wire 1 " rst_n $end
$upscope $end
$scope module SE $end
$var wire 16 7" data_i [15:0] $end
$var wire 32 8" data_o [31:0] $end
$upscope $end
$scope module Shamt_Src $end
$var wire 5 9" data0_i [4:0] $end
$var wire 5 :" data1_i [4:0] $end
$var wire 1 ;" select_i $end
$var wire 5 <" data_o [4:0] $end
$upscope $end
$scope module ZERO $end
$var wire 1 6 data0_i $end
$var wire 1 =" data1_i $end
$var wire 1 V select_i $end
$var wire 1 @ data_o $end
$upscope $end
$scope module ZF $end
$var wire 16 >" data_i [15:0] $end
$var wire 32 ?" data_o [31:0] $end
$upscope $end
$scope module addr_jr $end
$var wire 32 @" data0_i [31:0] $end
$var wire 32 A" data1_i [31:0] $end
$var wire 1 D select_i $end
$var wire 32 B" data_o [31:0] $end
$upscope $end
$scope module branch $end
$var wire 32 C" data0_i [31:0] $end
$var wire 32 D" data1_i [31:0] $end
$var wire 1 E" select_i $end
$var wire 32 F" data_o [31:0] $end
$upscope $end
$scope module shifter $end
$var wire 1 G" leftRight $end
$var wire 32 H" sftSrc [31:0] $end
$var wire 5 I" shamt [4:0] $end
$var wire 32 J" result [31:0] $end
$upscope $end
$scope module shifter_left2_1 $end
$var wire 1 K" leftRight $end
$var wire 32 L" result [31:0] $end
$var wire 32 M" sftSrc [31:0] $end
$var wire 5 N" shamt [4:0] $end
$upscope $end
$scope module shifter_left2_2 $end
$var wire 1 O" leftRight $end
$var wire 32 P" result [31:0] $end
$var wire 32 Q" sftSrc [31:0] $end
$var wire 5 R" shamt [4:0] $end
$upscope $end
$upscope $end
$upscope $end
$enddefinitions $end
#0
$dumpvars
b10 R"
bx Q"
bx00 P"
0O"
b10 N"
bx M"
bx00 L"
0K"
bx J"
bx I"
bx H"
xG"
bx F"
xE"
bx D"
bx C"
bx B"
bx A"
bx @"
b0xxxxxxxxxxxxxxxx ?"
bx >"
0="
bx <"
x;"
bx :"
bx 9"
bx 8"
bx 7"
bx 6"
bx 5"
bx 4"
bx 3"
bx 2"
bx 1"
bx 0"
b0xxxxxxxxxxxxxxxx /"
bx ."
b0x -"
b0 ,"
bx +"
bx *"
bx )"
b11111 ("
bx '"
bx &"
bx %"
bx $"
bx #"
bx ""
bx !"
bx ~
bx }
bx |
bx {
bx z
bx00 y
b100000 x
bx w
bx v
xu
xt
xs
bx r
bx q
bx p
b10000000 o
bx n
bx m
bx l
bx00 k
bx j
bx i
bx h
bx g
b100 f
bx e
bx d
bx c
b0 b
bx a
bx `
bx _
bx ^
bx ]
b0x \
bx [
bx Z
bx Y
xX
xW
xV
bx U
b0x T
xS
xR
xQ
xP
xO
xN
bx M
bx L
bx K
bx J
bx I
bx H
bx G
bx F
bx E
xD
bx C
bx B
bx A
x@
bx ?
bx >
b0 =
bx <
bx ;
bx :
bx00 9
bx00 8
bx 7
16
b0xxxxxxxxxxxxxxxx 5
z4
z3
bx 2
b0 1
bx 0
bx /
b10000000 .
b10 -
bx ,
b0 +
bx *
bx )
bx (
bx '
bx &
b0 %
bx $
bx #
0"
0!
$end
#5000
1="
06
b1 =
b1 b
b1 ,"
b0x0x K
b0x0x #"
b0x0x 2"
b1 J
b1 }
b1 !"
b1 C
b1 m
b1 ~
b1 ."
b100 ?
b100 *"
b100 B"
b100 A
b100 z
b100 @"
0G"
1;"
bx1 I
bx1 )"
bx1 1"
b1 <
b1 0"
b1 J"
b100 B
b100 {
b100 F"
b10 Z
b10 ]
b10 _
b0 T
b0 \
b0 -"
0@
0E"
b0 M
b0 <"
b0 I"
b1000 G
b1000 j
b1000 D"
0D
0V
0S
0P
1N
1u
0Q
0t
0R
0s
0W
1X
b11 Y
b11 ^
b11 q
b11 r
0O
b1 L
b1 `
b1 c
b1 H"
b0 :"
b1 H
b1 &"
b1 '"
b0 9"
b1 5
b1 /"
b1 ?"
b1 >"
b100 8
b100 k
b100 P"
b1 7
b1 d
b1 8"
b1 Q"
b1 7"
b1 [
b1000 p
b0 :
b0 e
b0 l
b0 6"
b1 5"
b0 ;
b0 a
b0 4"
b0 A"
b0 3"
b0 %"
b1 $"
b1000000000000000100 y
b10000000000001000000000000000100 9
b10000000000001000000000000000100 L"
b100000000000010000000000000001 E
b100000000000010000000000000001 w
b100000000000010000000000000001 M"
b100 F
b100 g
b100 i
b100 ""
b100 C"
b0 >
b0 h
b0 v
b0 +"
1!
#10000
b1 *
b0 )
b100000000000010000000000000001 %
b100 '
1"
0!
#15000
b10 J
b10 }
b10 !"
b10 C
b10 m
b10 ~
b10 ."
b10 =
b10 b
b10 ,"
b10 <
b10 0"
b10 J"
bx1x I
bx1x )"
bx1x 1"
b1000 ?
b1000 *"
b1000 B"
b10 L
b10 `
b10 c
b10 H"
b10 H
b10 &"
b10 '"
b1000 A
b1000 z
b1000 @"
b10000000000000001000 y
b10 5
b10 /"
b10 ?"
b10 >"
b1000 8
b1000 k
b1000 P"
b10 7
b10 d
b10 8"
b10 Q"
b10 7"
b10 [
b10 5"
b10 $"
b0x0x0 K
b0x0x0 #"
b0x0x0 2"
b1000 B
b1000 {
b1000 F"
b10000000000010000000000000001000 9
b10000000000010000000000000001000 L"
b100000000000100000000000000010 E
b100000000000100000000000000010 w
b100000000000100000000000000010 M"
b10000 G
b10000 j
b10000 D"
b1000 F
b1000 g
b1000 i
b1000 ""
b1000 C"
b100 >
b100 h
b100 v
b100 +"
1!
#20000
b10 *
b1000 '
b100000000000100000000000000010 %
b1 +
0!
#25000
bx11 I
bx11 )"
bx11 1"
b1100 ?
b1100 *"
b1100 B"
b11 H
b11 &"
b11 '"
b1100 A
b1100 z
b1100 @"
b11000000000000001000 y
b11 5"
b11 $"
b0xxx0 K
b0xxx0 #"
b0xxx0 2"
b1100 B
b1100 {
b1100 F"
b10000000000011000000000000001000 9
b10000000000011000000000000001000 L"
b100000000000110000000000000010 E
b100000000000110000000000000010 w
b100000000000110000000000000010 M"
b10100 G
b10100 j
b10100 D"
b1100 F
b1100 g
b1100 i
b1100 ""
b1100 C"
b1000 >
b1000 h
b1000 v
b1000 +"
1!
#30000
b11 *
b1100 '
b100000000000110000000000000010 %
b10 +
0!
#35000
b100 J
b100 }
b100 !"
b100 C
b100 m
b100 ~
b100 ."
b100 =
b100 b
b100 ,"
b100 <
b100 0"
b100 J"
bx1xx I
bx1xx )"
bx1xx 1"
b10000 ?
b10000 *"
b10000 B"
b100 L
b100 `
b100 c
b100 H"
b100 H
b100 &"
b100 '"
b10000 A
b10000 z
b10000 @"
b100000000000000010000 y
b100 5
b100 /"
b100 ?"
b100 >"
b10000 8
b10000 k
b10000 P"
b100 7
b100 d
b100 8"
b100 Q"
b100 7"
b100 [
b100 5"
b100 $"
b0x0x00 K
b0x0x00 #"
b0x0x00 2"
b10000 B
b10000 {
b10000 F"
b10000000000100000000000000010000 9
b10000000000100000000000000010000 L"
b100000000001000000000000000100 E
b100000000001000000000000000100 w
b100000000001000000000000000100 M"
b100000 G
b100000 j
b100000 D"
b10000 F
b10000 g
b10000 i
b10000 ""
b10000 C"
b1100 >
b1100 h
b1100 v
b1100 +"
1!
#40000
b100 *
b10000 '
b100000000001000000000000000100 %
b11 +
0!
#45000
b0 J
b0 }
b0 !"
b0 C
b0 m
b0 ~
b0 ."
1@
0="
16
b0 =
b0 b
b0 ,"
b110 Z
b110 ]
b110 _
b0 <
b0 0"
b0 J"
bx1x1 I
bx1x1 )"
bx1x1 1"
b10100 ?
b10100 *"
b10100 B"
b0 L
b0 `
b0 c
b0 H"
0X
b10 Y
b10 ^
b10 q
b10 r
1O
b101 H
b101 &"
b101 '"
b10100 A
b10100 z
b10100 @"
b11001010000001000100 y
b10100000010001 5
b10100000010001 /"
b10100000010001 ?"
b10100000010001 >"
b1010000001000100 8
b1010000001000100 k
b1010000001000100 P"
b10100000010001 7
b10100000010001 d
b10100000010001 8"
b10100000010001 Q"
b10100000010001 7"
b10001 [
b0 p
b11 5"
b101 %"
b11 $"
b0x0x00 K
b0x0x00 #"
b0x0x00 2"
b10100 B
b10100 {
b10100 F"
b11001010000001000100 9
b11001010000001000100 L"
b110010100000010001 E
b110010100000010001 w
b110010100000010001 M"
b1010000001011000 G
b1010000001011000 j
b1010000001011000 D"
b10100 F
b10100 g
b10100 i
b10100 ""
b10100 C"
b10000 >
b10000 h
b10000 v
b10000 +"
1!
#50000
b101 (
b11 *
b10100 '
b110010100000010001 %
b100 +
0!
#55000
0;"
b0 Z
b0 ]
b0 _
bx I
bx )"
bx 1"
b11000 ?
b11000 *"
b11000 B"
0N
0u
1Q
1t
1X
b0 Y
b0 ^
b0 q
b0 r
b0 H
b0 &"
b0 '"
b11000 A
b11000 z
b11000 @"
b10000000000000000000 y
b0 5
b0 /"
b0 ?"
b0 >"
b0 8
b0 k
b0 P"
b0 7
b0 d
b0 8"
b0 Q"
b0 7"
b0 [
b101101 p
b10 5"
b0 %"
b10 $"
b0xx000 K
b0xx000 #"
b0xx000 2"
b11000 B
b11000 {
b11000 F"
b11010000000010000000000000000000 9
b11010000000010000000000000000000 L"
b10110100000000100000000000000000 E
b10110100000000100000000000000000 w
b10110100000000100000000000000000 M"
b11000 G
b11000 j
b11000 D"
b11000 F
b11000 g
b11000 i
b11000 ""
b11000 C"
b10100 >
b10100 h
b10100 v
b10100 +"
1!
#60000
b10 $
b0 #
b10 *
b11000 '
b10110100000000100000000000000000 %
b101 +
0!
#65000
b100 <
b100 0"
b100 J"
b11100 ?
b11100 *"
b11100 B"
b100 L
b100 `
b100 c
b100 H"
b11100 A
b11100 z
b11100 @"
b101000000000000010000 y
b100 5
b100 /"
b100 ?"
b100 >"
b10000 8
b10000 k
b10000 P"
b100 7
b100 d
b100 8"
b100 Q"
b100 7"
b100 [
b101 5"
b101 $"
b0xxx00 K
b0xxx00 #"
b0xxx00 2"
b11100 B
b11100 {
b11100 F"
b11010000000101000000000000010000 9
b11010000000101000000000000010000 L"
b10110100000001010000000000000100 E
b10110100000001010000000000000100 w
b10110100000001010000000000000100 M"
b101100 G
b101100 j
b101100 D"
b11100 F
b11100 g
b11100 i
b11100 ""
b11100 C"
b11000 >
b11000 h
b11000 v
b11000 +"
1!
#70000
b11111111111111111111111111111110 $
b100 #
b101 *
b11100 '
b10110100000001010000000000000100 %
b110 +
0!
#75000
bx11x I
bx11x )"
bx11x 1"
b0 <
b0 0"
b0 J"
b0 U
b0 n
b0 |
b110 H
b110 &"
b110 '"
b100000 ?
b100000 *"
b100000 B"
b0 L
b0 `
b0 c
b0 H"
1P
1N
1u
0Q
0t
1R
1s
0O
b100000 A
b100000 z
b100000 @"
b110000000000000000000 y
b0 5
b0 /"
b0 ?"
b0 >"
b0 8
b0 k
b0 P"
b0 7
b0 d
b0 8"
b0 Q"
b0 7"
b0 [
b101100 p
b110 5"
b110 $"
b0x00000 K
b0x00000 #"
b0x00000 2"
b100000 B
b100000 {
b100000 F"
b11000000000110000000000000000000 9
b11000000000110000000000000000000 L"
b10110000000001100000000000000000 E
b10110000000001100000000000000000 w
b10110000000001100000000000000000 M"
b100000 G
b100000 j
b100000 D"
b100000 F
b100000 g
b100000 i
b100000 ""
b100000 C"
b11100 >
b11100 h
b11100 v
b11100 +"
1!
#80000
b0 #
b110 *
b100000 '
b10110000000001100000000000000000 %
b111 +
0!
#85000
bx111 I
bx111 )"
bx111 1"
b100100 ?
b100100 *"
b100100 B"
b111 H
b111 &"
b111 '"
b100100 A
b100100 z
b100100 @"
b10000111000000000000000000 y
b111 5"
b100 3"
b111 $"
b0x00x00 K
b0x00x00 #"
b0x00x00 2"
b100100 B
b100100 {
b100100 F"
b11000010000111000000000000000000 9
b11000010000111000000000000000000 L"
b10110000100001110000000000000000 E
b10110000100001110000000000000000 w
b10110000100001110000000000000000 M"
b100100 G
b100100 j
b100100 D"
b100100 F
b100100 g
b100100 i
b100100 ""
b100100 C"
b100000 >
b100000 h
b100000 v
b100000 +"
1!
#90000
b100 #
b111 *
b100 )
b100100 '
b10110000100001110000000000000000 %
b1000 +
0!
#95000
1E"
bx I
bx )"
bx 1"
b110100 ?
b110100 *"
b110100 B"
0P
0N
0u
0R
0s
1W
0X
b1 Y
b1 ^
b1 q
b1 r
1O
b0 H
b0 &"
b0 '"
b110100 A
b110100 z
b110100 @"
b1000101000000000000001100 y
b11 5
b11 /"
b11 ?"
b11 >"
b1100 8
b1100 k
b1100 P"
b11 7
b11 d
b11 8"
b11 Q"
b11 7"
b11 [
b1010 p
b101 5"
b10 3"
b101 $"
b0x0x000 K
b0x0x000 #"
b0x0x000 2"
b110100 B
b110100 {
b110100 F"
b10100001000101000000000000001100 9
b10100001000101000000000000001100 L"
b101000010001010000000000000011 E
b101000010001010000000000000011 w
b101000010001010000000000000011 M"
b110100 G
b110100 j
b110100 D"
b101000 F
b101000 g
b101000 i
b101000 ""
b101000 C"
b100100 >
b100100 h
b100100 v
b100100 +"
1!
#100000
b101 *
b10 )
b101000 '
b101000010001010000000000000011 %
b1001 +
0!
#105000
b1 J
b1 }
b1 !"
b1 C
b1 m
b1 ~
b1 ."
0@
1="
06
b1 =
b1 b
b1 ,"
1;"
b1 <
b1 0"
b1 J"
b10 Z
b10 ]
b10 _
bx1xx1 I
bx1xx1 )"
bx1xx1 1"
0E"
b1 L
b1 `
b1 c
b1 H"
b1001 H
b1001 &"
b1001 '"
b111000 ?
b111000 *"
b111000 B"
1N
1u
0W
1X
b11 Y
b11 ^
b11 q
b11 r
0O
b111000 A
b111000 z
b111000 @"
b1001000000000000000100 y
b1 5
b1 /"
b1 ?"
b1 >"
b100 8
b100 k
b100 P"
b1 7
b1 d
b1 8"
b1 Q"
b1 7"
b1 [
b1000 p
b1001 5"
b0 3"
b1001 $"
b111000 B
b111000 {
b111000 F"
b0xxx00x K
b0xxx00x #"
b0xxx00x 2"
b10000000001001000000000000000100 9
b10000000001001000000000000000100 L"
b100000000010010000000000000001 E
b100000000010010000000000000001 w
b100000000010010000000000000001 M"
b111100 G
b111100 j
b111100 D"
b111000 F
b111000 g
b111000 i
b111000 ""
b111000 C"
b110100 >
b110100 h
b110100 v
b110100 +"
1!
#110000
b1000 (
b11 *
b101100 '
b10000110100000000010011 %
b1010 +
0!
#115000
b0 J
b0 }
b0 !"
b0 C
b0 m
b0 ~
b0 ."
1@
0="
16
b0 =
b0 b
b0 ,"
0;"
b0 Z
b0 ]
b0 _
b1100 <
b1100 0"
b1100 J"
bx I
bx )"
bx 1"
b111100 ?
b111100 *"
b111100 B"
b1100 L
b1100 `
b1100 c
b1100 H"
0N
0u
1Q
1t
b0 Y
b0 ^
b0 q
b0 r
1O
b0 H
b0 &"
b0 '"
b111100 A
b111100 z
b111100 @"
b1000000000000110000 y
b1100 5
b1100 /"
b1100 ?"
b1100 >"
b110000 8
b110000 k
b110000 P"
b1100 7
b1100 d
b1100 8"
b1100 Q"
b1100 7"
b1100 [
b101101 p
b1 5"
b1 $"
b0xxxx00 K
b0xxxx00 #"
b0xxxx00 2"
b111100 B
b111100 {
b111100 F"
b11010000000001000000000000110000 9
b11010000000001000000000000110000 L"
b10110100000000010000000000001100 E
b10110100000000010000000000001100 w
b10110100000000010000000000001100 M"
b1101100 G
b1101100 j
b1101100 D"
b111100 F
b111100 g
b111100 i
b111100 ""
b111100 C"
b111000 >
b111000 h
b111000 v
b111000 +"
1!
#120000
b1 $
b1000 #
b1 *
b0 )
b110000 '
b10110100000000010000000000001000 %
b1011 +
0!
#125000
b1 J
b1 }
b1 !"
b1 C
b1 m
b1 ~
b1 ."
0@
1="
06
b1 =
b1 b
b1 ,"
1;"
b10 Z
b10 ]
b10 _
bx1x1x I
bx1x1x )"
bx1x1x 1"
b1 <
b1 0"
b1 J"
b1010 H
b1010 &"
b1010 '"
b1000000 ?
b1000000 *"
b1000000 B"
b1 L
b1 `
b1 c
b1 H"
1N
1u
0Q
0t
b11 Y
b11 ^
b11 q
b11 r
0O
b1000000 A
b1000000 z
b1000000 @"
b1010000000000000000100 y
b1 5
b1 /"
b1 ?"
b1 >"
b100 8
b100 k
b100 P"
b1 7
b1 d
b1 8"
b1 Q"
b1 7"
b1 [
b1000 p
b1010 5"
b1010 $"
b0x00000x K
b0x00000x #"
b0x00000x 2"
b1000000 B
b1000000 {
b1000000 F"
b10000000001010000000000000000100 9
b10000000001010000000000000000100 L"
b100000000010100000000000000001 E
b100000000010100000000000000001 w
b100000000010100000000000000001 M"
b1000100 G
b1000100 j
b1000100 D"
b1000000 F
b1000000 g
b1000000 i
b1000000 ""
b1000000 C"
b111100 >
b111100 h
b111100 v
b111100 +"
1!
#130000
b1000 *
b100 )
b111100 '
b101000100010000000000000000010 %
b1100 +
0!
#135000
b0 J
b0 }
b0 !"
b0 C
b0 m
b0 ~
b0 ."
1@
0="
16
b0 =
b0 b
b0 ,"
0;"
b0 Z
b0 ]
b0 _
b10000 <
b10000 0"
b10000 J"
bx I
bx )"
bx 1"
b1000100 ?
b1000100 *"
b1000100 B"
b10000 L
b10000 `
b10000 c
b10000 H"
0N
0u
1Q
1t
b0 Y
b0 ^
b0 q
b0 r
1O
b0 H
b0 &"
b0 '"
b1000100 A
b1000100 z
b1000100 @"
b1000000000001000000 y
b10000 5
b10000 /"
b10000 ?"
b10000 >"
b1000000 8
b1000000 k
b1000000 P"
b10000 7
b10000 d
b10000 8"
b10000 Q"
b10000 7"
b10000 [
b101101 p
b1 5"
b1 $"
b0x000x00 K
b0x000x00 #"
b0x000x00 2"
b1000100 B
b1000100 {
b1000100 F"
b11010000000001000000000001000000 9
b11010000000001000000000001000000 L"
b10110100000000010000000000010000 E
b10110100000000010000000000010000 w
b10110100000000010000000000010000 M"
b10000100 G
b10000100 j
b10000100 D"
b1000100 F
b1000100 g
b1000100 i
b1000100 ""
b1000100 C"
b1000000 >
b1000000 h
b1000000 v
b1000000 +"
1!
#140000
b1010 *
b0 )
b1000000 '
b100000000010100000000000000001 %
b1101 +
0!
#145000
b0 <
b0 0"
b0 J"
0@
0E"
b1001000 ?
b1001000 *"
b1001000 B"
b0 L
b0 `
b0 c
b0 H"
1V
0Q
0t
1W
0X
b110 Y
b110 ^
b110 q
b110 r
b1001000 A
b1001000 z
b1001000 @"
b1000011000000000000001100 y
b11 5
b11 /"
b11 ?"
b11 >"
b1100 8
b1100 k
b1100 P"
b11 7
b11 d
b11 8"
b11 Q"
b11 7"
b11 [
b1011 p
b11 5"
b10 3"
b11 $"
b0x00x000 K
b0x00x000 #"
b0x00x000 2"
b1001000 B
b1001000 {
b1001000 F"
b10110001000011000000000000001100 9
b10110001000011000000000000001100 L"
b101100010000110000000000000011 E
b101100010000110000000000000011 w
b101100010000110000000000000011 M"
b1010100 G
b1010100 j
b1010100 D"
b1001000 F
b1001000 g
b1001000 i
b1001000 ""
b1001000 C"
b1000100 >
b1000100 h
b1000100 v
b1000100 +"
1!
#150000
b10000 #
b1 *
b1000100 '
b10110100000000010000000000010000 %
b1110 +
0!
#155000
b11 J
b11 }
b11 !"
b11 C
b11 m
b11 ~
b11 ."
1="
06
b11 =
b11 b
b11 ,"
1;"
b11 <
b11 0"
b11 J"
b10 Z
b10 ]
b10 _
bx1x11 I
bx1x11 )"
bx1x11 1"
0@
b11 L
b11 `
b11 c
b11 H"
b1011 H
b1011 &"
b1011 '"
b1001100 ?
b1001100 *"
b1001100 B"
0V
1N
1u
0W
1X
b11 Y
b11 ^
b11 q
b11 r
0O
b1001100 A
b1001100 z
b1001100 @"
b1011000000000000001100 y
b1000 p
b1011 5"
b0 3"
b1011 $"
b0x00xxxx K
b0x00xxxx #"
b0x00xxxx 2"
b1001100 B
b1001100 {
b1001100 F"
b10000000001011000000000000001100 9
b10000000001011000000000000001100 L"
b100000000010110000000000000011 E
b100000000010110000000000000011 w
b100000000010110000000000000011 M"
b1011000 G
b1011000 j
b1011000 D"
b1001100 F
b1001100 g
b1001100 i
b1001100 ""
b1001100 C"
b1001000 >
b1001000 h
b1001000 v
b1001000 +"
1!
#160000
b11 *
b10 )
b1001000 '
b101100010000110000000000000011 %
b1111 +
0!
#165000
b0 J
b0 }
b0 !"
b0 C
b0 m
b0 ~
b0 ."
1@
0="
16
b0 =
b0 b
b0 ,"
0;"
b0 Z
b0 ]
b0 _
b10100 <
b10100 0"
b10100 J"
bx I
bx )"
bx 1"
b1010000 ?
b1010000 *"
b1010000 B"
b10100 L
b10100 `
b10100 c
b10100 H"
0N
0u
1Q
1t
b0 Y
b0 ^
b0 q
b0 r
1O
b0 H
b0 &"
b0 '"
b1010000 A
b1010000 z
b1010000 @"
b100000000000001010000 y
b10100 5
b10100 /"
b10100 ?"
b10100 >"
b1010000 8
b1010000 k
b1010000 P"
b10100 7
b10100 d
b10100 8"
b10100 Q"
b10100 7"
b10100 [
b101101 p
b100 5"
b100 $"
b0x0x0000 K
b0x0x0000 #"
b0x0x0000 2"
b1010000 B
b1010000 {
b1010000 F"
b11010000000100000000000001010000 9
b11010000000100000000000001010000 L"
b10110100000001000000000000010100 E
b10110100000001000000000000010100 w
b10110100000001000000000000010100 M"
b10100000 G
b10100000 j
b10100000 D"
b1010000 F
b1010000 g
b1010000 i
b1010000 ""
b1010000 C"
b1001100 >
b1001100 h
b1001100 v
b1001100 +"
1!
#170000
b1011 *
b0 )
b1001100 '
b100000000010110000000000000011 %
b10000 +
0!
#175000
b0 <
b0 0"
b0 J"
0@
0E"
b1010100 ?
b1010100 *"
b1010100 B"
b0 L
b0 `
b0 c
b0 H"
1V
0Q
0t
1W
0X
b110 Y
b110 ^
b110 q
b110 r
b1010100 A
b1010100 z
b1010100 @"
b1000101000000000000001000 y
b10 5
b10 /"
b10 ?"
b10 >"
b1000 8
b1000 k
b1000 P"
b10 7
b10 d
b10 8"
b10 Q"
b10 7"
b10 [
b1011 p
b101 5"
b10 3"
b101 $"
b0x0x0x00 K
b0x0x0x00 #"
b0x0x0x00 2"
b1010100 B
b1010100 {
b1010100 F"
b10110001000101000000000000001000 9
b10110001000101000000000000001000 L"
b101100010001010000000000000010 E
b101100010001010000000000000010 w
b101100010001010000000000000010 M"
b1011100 G
b1011100 j
b1011100 D"
b1010100 F
b1010100 g
b1010100 i
b1010100 ""
b1010100 C"
b1010000 >
b1010000 h
b1010000 v
b1010000 +"
1!
#180000
b100 $
b10100 #
b100 *
b1010000 '
b10110100000001000000000000010100 %
b10001 +
0!
