CO_Lab3/ALU_lab3.vcd
$date
	Thu Aug 12 02:53:19 2021
$end
$version
	Icarus Verilog
$end
$timescale
	1ps
$end
$scope module TestBench $end
$var reg 1 ! CLK $end
$var reg 1 " RST $end
$var reg 32 # addr [31:0] $end
$var reg 32 $ data [31:0] $end
$var reg 32 % instruction [31:0] $end
$var reg 4 & k [3:0] $end
$var reg 32 ' pc [31:0] $end
$var reg 5 ( rd [4:0] $end
$var reg 5 ) rs [4:0] $end
$var reg 5 * rt [4:0] $end
$var integer 32 + count [31:0] $end
$var integer 32 , error_record [31:0] $end
$var integer 32 - handle [31:0] $end
$var integer 32 . i [31:0] $end
$var integer 32 / initail_error [31:0] $end
$var integer 32 0 j [31:0] $end
$var integer 32 1 mode [31:0] $end
$var integer 32 2 score [31:0] $end
$scope module cpu $end
$var wire 1 ! clk_i $end
$var wire 1 3 overflow $end
$var wire 1 " rst_n $end
$var wire 32 4 zero_instr [31:0] $end
$var wire 1 5 zero $end
$var wire 32 6 sign_instr [31:0] $end
$var wire 32 7 rt_data [31:0] $end
$var wire 32 8 rs_data [31:0] $end
$var wire 32 9 result_Shifter [31:0] $end
$var wire 32 : result_ALU [31:0] $end
$var wire 32 ; pc_inst [31:0] $end
$var wire 1 < mux_zero $end
$var wire 32 = mux_mux_add_add_pc [31:0] $end
$var wire 32 > mux_add_add_pc [31:0] $end
$var wire 32 ? mux3_result [31:0] $end
$var wire 1 @ jr $end
$var wire 32 A instr_o [31:0] $end
$var wire 32 B add_pc [31:0] $end
$var wire 32 C add_add_pc [31:0] $end
$var wire 5 D Write_reg [4:0] $end
$var wire 32 E Write_Data [31:0] $end
$var wire 32 F Src_ALU_Shifter [31:0] $end
$var wire 5 G ShamtSrc [4:0] $end
$var wire 1 H RegWrite $end
$var wire 1 I RegDst $end
$var wire 1 J MemtoReg $end
$var wire 1 K MemWrite $end
$var wire 1 L MemRead $end
$var wire 1 M Jump $end
$var wire 2 N FURslt [1:0] $end
$var wire 32 O DM_result [31:0] $end
$var wire 2 P BranchType [1:0] $end
$var wire 1 Q Branch $end
$var wire 1 R ALUSrc $end
$var wire 3 S ALUOp [2:0] $end
$var wire 4 T ALUCtrl [3:0] $end
$scope module AC $end
$var wire 6 U funct_i [5:0] $end
$var wire 1 @ jr_o $end
$var wire 2 V FURslt_o [1:0] $end
$var wire 4 W ALU_operation_o [3:0] $end
$var wire 3 X ALUOp_i [2:0] $end
$var reg 1 Y ALU_operation_o_r $end
$var reg 1 Z FURslt_o_r $end
$upscope $end
$scope module ALU $end
$var wire 4 [ ALU_operation_i [3:0] $end
$var wire 1 3 overflow $end
$var wire 1 5 zero $end
$var wire 32 \ aluSrc2 [31:0] $end
$var wire 32 ] aluSrc1 [31:0] $end
$var reg 32 ^ result [31:0] $end
$upscope $end
$scope module ALU_src2Src $end
$var wire 1 R select_i $end
$var wire 32 _ data_o [31:0] $end
$var wire 32 ` data1_i [31:0] $end
$var wire 32 a data0_i [31:0] $end
$upscope $end
$scope module Adder1 $end
$var wire 32 b src2_i [31:0] $end
$var wire 32 c sum_o [31:0] $end
$var wire 32 d src1_i [31:0] $end
$upscope $end
$scope module Adder2 $end
$var wire 32 e src1_i [31:0] $end
$var wire 32 f src2_i [31:0] $end
$var wire 32 g sum_o [31:0] $end
$upscope $end
$scope module DM $end
$var wire 1 ! clk_i $end
$var wire 32 h data_i [31:0] $end
$var wire 32 i addr_i [31:0] $end
$var wire 1 K MemWrite_i $end
$var wire 1 L MemRead_i $end
$var reg 32 j data_o [31:0] $end
$var integer 32 k i [31:0] $end
$upscope $end
$scope module Decoder $end
$var wire 1 L MemRead_o $end
$var wire 1 K MemWrite_o $end
$var wire 1 H RegWrite_o $end
$var wire 6 l instr_op_i [5:0] $end
$var wire 1 I RegDst_o $end
$var wire 1 J MemtoReg_o $end
$var wire 1 M Jump_o $end
$var wire 1 Q Branch_o $end
$var wire 2 m BranchType_o [1:0] $end
$var wire 1 R ALUSrc_o $end
$var wire 3 n ALUOp_o [2:0] $end
$var reg 3 o ALUOp_o_r [2:0] $end
$var reg 1 R ALUSrc_o_r $end
$var reg 2 p BranchType_o_r [1:0] $end
$var reg 1 Q Branch_o_r $end
$var reg 1 M Jump_o_r $end
$var reg 1 q MemRead_o_r $end
$var reg 1 r MemWrite_o_r $end
$var reg 1 J MemtoReg_o_r $end
$var reg 1 I RegDst_o_r $end
$var reg 1 s RegWrite_o_r $end
$upscope $end
$scope module IM $end
$var wire 32 t pc_addr_i [31:0] $end
$var reg 32 u instr_o [31:0] $end
$var integer 32 v i [31:0] $end
$upscope $end
$scope module JUMP $end
$var wire 32 w data1_i [31:0] $end
$var wire 1 M select_i $end
$var wire 32 x data_o [31:0] $end
$var wire 32 y data0_i [31:0] $end
$upscope $end
$scope module Memto $end
$var wire 32 z data1_i [31:0] $end
$var wire 1 J select_i $end
$var wire 32 { data_o [31:0] $end
$var wire 32 | data0_i [31:0] $end
$upscope $end
$scope module Mux_Write_Reg $end
$var wire 5 } data0_i [4:0] $end
$var wire 5 ~ data1_i [4:0] $end
$var wire 1 I select_i $end
$var wire 5 !" data_o [4:0] $end
$upscope $end
$scope module PC $end
$var wire 1 ! clk_i $end
$var wire 32 "" pc_in_i [31:0] $end
$var wire 1 " rst_n $end
$var reg 32 #" pc_out_o [31:0] $end
$upscope $end
$scope module RDdata_Source $end
$var wire 32 $" data0_i [31:0] $end
$var wire 2 %" select_i [1:0] $end
$var wire 32 &" data_o [31:0] $end
$var wire 32 '" data2_i [31:0] $end
$var wire 32 (" data1_i [31:0] $end
$upscope $end
$scope module RF $end
$var wire 5 )" RDaddr_i [4:0] $end
$var wire 32 *" RDdata_i [31:0] $end
$var wire 5 +" RSaddr_i [4:0] $end
$var wire 32 ," RSdata_o [31:0] $end
$var wire 5 -" RTaddr_i [4:0] $end
$var wire 32 ." RTdata_o [31:0] $end
$var wire 1 H RegWrite_i $end
$var wire 1 ! clk_i $end
$var wire 1 " rst_n $end
$upscope $end
$scope module SE $end
$var wire 16 /" data_i [15:0] $end
$var wire 32 0" data_o [31:0] $end
$upscope $end
$scope module Shamt_Src $end
$var wire 5 1" data0_i [4:0] $end
$var wire 5 2" data1_i [4:0] $end
$var wire 1 3" select_i $end
$var wire 5 4" data_o [4:0] $end
$upscope $end
$scope module ZERO $end
$var wire 1 5 data0_i $end
$var wire 1 5" data1_i $end
$var wire 1 6" select_i $end
$var wire 1 < data_o $end
$upscope $end
$scope module ZF $end
$var wire 16 7" data_i [15:0] $end
$var wire 32 8" data_o [31:0] $end
$upscope $end
$scope module branch $end
$var wire 32 9" data0_i [31:0] $end
$var wire 32 :" data1_i [31:0] $end
$var wire 1 ;" select_i $end
$var wire 32 <" data_o [31:0] $end
$upscope $end
$scope module shifter $end
$var wire 1 =" leftRight $end
$var wire 32 >" sftSrc [31:0] $end
$var wire 5 ?" shamt [4:0] $end
$var wire 32 @" result [31:0] $end
$upscope $end
$upscope $end
$upscope $end
$enddefinitions $end
#0
$dumpvars
bx @"
bx ?"
bx >"
x="
bx <"
x;"
bx :"
bx 9"
bx0000000000000000 8"
bx 7"
x6"
05"
bx 4"
03"
bx 2"
bx 1"
bx 0"
bx /"
bx ."
bx -"
bx ,"
bx +"
bx *"
bx )"
bx ("
bx0000000000000000 '"
bx &"
b0x %"
b0 $"
bx #"
bx ""
bx !"
bx ~
bx }
bx |
bx {
bx z
bx y
bx x
bx00 w
b100000 v
bx u
bx t
xs
xr
xq
bx p
bx o
bx n
bx m
bx l
b10000000 k
bx j
bx i
bx h
bx g
bx00 f
bx e
bx d
bx c
b100 b
bx a
bx `
bx _
b0 ^
bx ]
bx \
b0x [
xZ
xY
bx X
b0x W
b0x V
bx U
b0x T
bx S
xR
xQ
bx P
bx O
b0x N
xM
xL
xK
xJ
xI
xH
bx G
bx F
bx E
bx D
bx C
bx B
bx A
x@
bx ?
bx >
bx =
x<
bx ;
b0 :
bx 9
bx 8
bx 7
bx 6
15
bx0000000000000000 4
z3
bx 2
b0 1
bx 0
bx /
b10000000 .
b10 -
bx ,
b0 +
bx *
bx )
bx (
bx '
bx &
b0 %
bx $
bx #
0"
0!
$end
#5000
b0 E
b0 {
b0 *"
b0 ?
b0 i
b0 |
b0 &"
b100 =
b100 x
b100 ""
1<
b100 >
b100 y
b100 <"
b1 9
b1 ("
b1 @"
b1000 C
b1000 g
b1000 :"
0="
06"
0;"
b0 G
b0 4"
b0 ?"
b100 f
b0 N
b0 V
b0 %"
0Z
b0 T
b0 W
b0 [
0Y
0@
b0 P
b0 m
b0 p
0M
0J
1H
1s
0K
0r
0L
0q
0Q
1R
b100 S
b100 X
b100 n
b100 o
0I
b1 F
b1 \
b1 _
b1 >"
b0 2"
b1 D
b1 !"
b1 )"
b0 1"
b10000000000000000 4
b10000000000000000 '"
b10000000000000000 8"
b1 7"
b1 6
b1 `
b1 0"
b1 /"
b1 U
b1000 l
b0 7
b0 a
b0 h
b0 ."
b1 -"
b0 8
b0 ]
b0 ,"
b0 +"
b0 ~
b1 }
b1000000000000000100 w
b100000000000010000000000000001 A
b100000000000010000000000000001 u
b100 B
b100 c
b100 e
b100 9"
b0 ;
b0 d
b0 t
b0 #"
1!
#10000
b1 *
b0 )
b100000000000010000000000000001 %
b100 '
1"
0!
#15000
b10 9
b10 ("
b10 @"
b10 F
b10 \
b10 _
b10 >"
b1000 f
b10 D
b10 !"
b10 )"
b10000000000000001000 w
b1000 =
b1000 x
b1000 ""
b100000000000000000 4
b100000000000000000 '"
b100000000000000000 8"
b10 7"
b10 6
b10 `
b10 0"
b10 /"
b10 U
b10 -"
b10 }
b1000 >
b1000 y
b1000 <"
b100000000000100000000000000010 A
b100000000000100000000000000010 u
b10000 C
b10000 g
b10000 :"
b1000 B
b1000 c
b1000 e
b1000 9"
b100 ;
b100 d
b100 t
b100 #"
1!
#20000
b10 *
b1000 '
b100000000000100000000000000010 %
b1 +
0!
#25000
b11 D
b11 !"
b11 )"
b11000000000000001000 w
b1100 =
b1100 x
b1100 ""
b11 -"
b11 }
b1100 >
b1100 y
b1100 <"
b100000000000110000000000000010 A
b100000000000110000000000000010 u
b10100 C
b10100 g
b10100 :"
b1100 B
b1100 c
b1100 e
b1100 9"
b1000 ;
b1000 d
b1000 t
b1000 #"
1!
#30000
b11 *
b1100 '
b100000000000110000000000000010 %
b10 +
0!
#35000
b100 9
b100 ("
b100 @"
b100 F
b100 \
b100 _
b100 >"
b10000 f
b100 D
b100 !"
b100 )"
b100000000000000010000 w
b10000 =
b10000 x
b10000 ""
b1000000000000000000 4
b1000000000000000000 '"
b1000000000000000000 8"
b100 7"
b100 6
b100 `
b100 0"
b100 /"
b100 U
b100 -"
b100 }
b10000 >
b10000 y
b10000 <"
b100000000001000000000000000100 A
b100000000001000000000000000100 u
b100000 C
b100000 g
b100000 :"
b10000 B
b10000 c
b10000 e
b10000 9"
b1100 ;
b1100 d
b1100 t
b1100 #"
1!
#40000
b100 *
b10000 '
b100000000001000000000000000100 %
b11 +
0!
#45000
b0 9
b0 ("
b0 @"
b0 F
b0 \
b0 _
b0 >"
b1010000001000100 f
0R
b10 S
b10 X
b10 n
b10 o
1I
b101 D
b101 !"
b101 )"
b11001010000001000100 w
b10100 =
b10100 x
b10100 ""
b101000000100010000000000000000 4
b101000000100010000000000000000 '"
b101000000100010000000000000000 8"
b10100000010001 7"
b10100000010001 6
b10100000010001 `
b10100000010001 0"
b10100000010001 /"
b10001 U
b0 l
b11 -"
b101 ~
b11 }
b10100 >
b10100 y
b10100 <"
b110010100000010001 A
b110010100000010001 u
b1010000001011000 C
b1010000001011000 g
b1010000001011000 :"
b10100 B
b10100 c
b10100 e
b10100 9"
b10000 ;
b10000 d
b10000 t
b10000 #"
1!
#50000
b101 (
b11 *
b10100 '
b110010100000010001 %
b100 +
0!
#55000
b0 f
0H
0s
1K
1r
1R
b0 S
b0 X
b0 n
b0 o
b0 D
b0 !"
b0 )"
b10000000000000000000 w
b11000 =
b11000 x
b11000 ""
b0 4
b0 '"
b0 8"
b0 7"
b0 6
b0 `
b0 0"
b0 /"
b0 U
b101101 l
b10 -"
b0 ~
b10 }
b11000 >
b11000 y
b11000 <"
b10110100000000100000000000000000 A
b10110100000000100000000000000000 u
b11000 C
b11000 g
b11000 :"
b11000 B
b11000 c
b11000 e
b11000 9"
b10100 ;
b10100 d
b10100 t
b10100 #"
1!
#60000
b10 $
b0 #
b10 *
b11000 '
b10110100000000100000000000000000 %
b101 +
0!
#65000
b100 9
b100 ("
b100 @"
b100 F
b100 \
b100 _
b100 >"
b10000 f
b101000000000000010000 w
b11100 =
b11100 x
b11100 ""
b1000000000000000000 4
b1000000000000000000 '"
b1000000000000000000 8"
b100 7"
b100 6
b100 `
b100 0"
b100 /"
b100 U
b101 -"
b101 }
b11100 >
b11100 y
b11100 <"
b10110100000001010000000000000100 A
b10110100000001010000000000000100 u
b101100 C
b101100 g
b101100 :"
b11100 B
b11100 c
b11100 e
b11100 9"
b11000 ;
b11000 d
b11000 t
b11000 #"
1!
#70000
b11111111111111111111111111111110 $
b100 #
b101 *
b11100 '
b10110100000001010000000000000100 %
b110 +
0!
#75000
b0 9
b0 ("
b0 @"
b0 O
b0 j
b0 z
b110 D
b110 !"
b110 )"
b0 F
b0 \
b0 _
b0 >"
b0 f
1J
1H
1s
0K
0r
1L
1q
0I
b110000000000000000000 w
b100000 =
b100000 x
b100000 ""
b0 4
b0 '"
b0 8"
b0 7"
b0 6
b0 `
b0 0"
b0 /"
b0 U
b101100 l
b110 -"
b110 }
b100000 >
b100000 y
b100000 <"
b10110000000001100000000000000000 A
b10110000000001100000000000000000 u
b100000 C
b100000 g
b100000 :"
b100000 B
b100000 c
b100000 e
b100000 9"
b11100 ;
b11100 d
b11100 t
b11100 #"
1!
#80000
b0 #
b110 *
b100000 '
b10110000000001100000000000000000 %
b111 +
0!
#85000
b111 D
b111 !"
b111 )"
b10000111000000000000000000 w
b100100 =
b100100 x
b100100 ""
b111 -"
b100 +"
b111 }
b100100 >
b100100 y
b100100 <"
b10110000100001110000000000000000 A
b10110000100001110000000000000000 u
b100100 C
b100100 g
b100100 :"
b100100 B
b100100 c
b100100 e
b100100 9"
b100000 ;
b100000 d
b100000 t
b100000 #"
1!
#90000
b100 #
b111 *
b100 )
b100100 '
b10110000100001110000000000000000 %
b1000 +
0!
#95000
1;"
b1100 f
0J
0H
0s
0L
0q
1Q
0R
b1 S
b1 X
b1 n
b1 o
1I
b0 D
b0 !"
b0 )"
b1000101000000000000001100 w
b110100 =
b110100 x
b110100 ""
b110000000000000000 4
b110000000000000000 '"
b110000000000000000 8"
b11 7"
b11 6
b11 `
b11 0"
b11 /"
b11 U
b1010 l
b101 -"
b10 +"
b101 }
b110100 >
b110100 y
b110100 <"
b101000010001010000000000000011 A
b101000010001010000000000000011 u
b110100 C
b110100 g
b110100 :"
b101000 B
b101000 c
b101000 e
b101000 9"
b100100 ;
b100100 d
b100100 t
b100100 #"
1!
#100000
b101 *
b10 )
b101000 '
b101000010001010000000000000011 %
b1001 +
0!
#105000
b1 9
b1 ("
b1 @"
0;"
b1 F
b1 \
b1 _
b1 >"
b1001 D
b1001 !"
b1001 )"
b100 f
1H
1s
0Q
1R
b100 S
b100 X
b100 n
b100 o
0I
b1001000000000000000100 w
b111000 =
b111000 x
b111000 ""
b10000000000000000 4
b10000000000000000 '"
b10000000000000000 8"
b1 7"
b1 6
b1 `
b1 0"
b1 /"
b1 U
b1000 l
b1001 -"
b0 +"
b1001 }
b111000 >
b111000 y
b111000 <"
b100000000010010000000000000001 A
b100000000010010000000000000001 u
b111100 C
b111100 g
b111100 :"
b111000 B
b111000 c
b111000 e
b111000 9"
b110100 ;
b110100 d
b110100 t
b110100 #"
1!
#110000
b1000 (
b11 *
b101100 '
b10000110100000000010011 %
b1010 +
0!
#115000
b1100 9
b1100 ("
b1100 @"
b1100 F
b1100 \
b1100 _
b1100 >"
b110000 f
0H
0s
1K
1r
b0 S
b0 X
b0 n
b0 o
1I
b0 D
b0 !"
b0 )"
b1000000000000110000 w
b111100 =
b111100 x
b111100 ""
b11000000000000000000 4
b11000000000000000000 '"
b11000000000000000000 8"
b1100 7"
b1100 6
b1100 `
b1100 0"
b1100 /"
b1100 U
b101101 l
b1 -"
b1 }
b111100 >
b111100 y
b111100 <"
b10110100000000010000000000001100 A
b10110100000000010000000000001100 u
b1101100 C
b1101100 g
b1101100 :"
b111100 B
b111100 c
b111100 e
b111100 9"
b111000 ;
b111000 d
b111000 t
b111000 #"
1!
#120000
b1 $
b1000 #
b1 *
b0 )
b110000 '
b10110100000000010000000000001000 %
b1011 +
0!
#125000
b1 9
b1 ("
b1 @"
b1010 D
b1010 !"
b1010 )"
b1 F
b1 \
b1 _
b1 >"
b100 f
1H
1s
0K
0r
b100 S
b100 X
b100 n
b100 o
0I
b1010000000000000000100 w
b1000000 =
b1000000 x
b1000000 ""
b10000000000000000 4
b10000000000000000 '"
b10000000000000000 8"
b1 7"
b1 6
b1 `
b1 0"
b1 /"
b1 U
b1000 l
b1010 -"
b1010 }
b1000000 >
b1000000 y
b1000000 <"
b100000000010100000000000000001 A
b100000000010100000000000000001 u
b1000100 C
b1000100 g
b1000100 :"
b1000000 B
b1000000 c
b1000000 e
b1000000 9"
b111100 ;
b111100 d
b111100 t
b111100 #"
1!
#130000
b1000 *
b100 )
b111100 '
b101000100010000000000000000010 %
b1100 +
0!
#135000
b10000 9
b10000 ("
b10000 @"
b10000 F
b10000 \
b10000 _
b10000 >"
b1000000 f
0H
0s
1K
1r
b0 S
b0 X
b0 n
b0 o
1I
b0 D
b0 !"
b0 )"
b1000000000001000000 w
b1000100 =
b1000100 x
b1000100 ""
b100000000000000000000 4
b100000000000000000000 '"
b100000000000000000000 8"
b10000 7"
b10000 6
b10000 `
b10000 0"
b10000 /"
b10000 U
b101101 l
b1 -"
b1 }
b1000100 >
b1000100 y
b1000100 <"
b10110100000000010000000000010000 A
b10110100000000010000000000010000 u
b10000100 C
b10000100 g
b10000100 :"
b1000100 B
b1000100 c
b1000100 e
b1000100 9"
b1000000 ;
b1000000 d
b1000000 t
b1000000 #"
1!
#140000
b1010 *
b0 )
b1000000 '
b100000000010100000000000000001 %
b1101 +
0!
#145000
0<
b0 9
b0 ("
b0 @"
16"
0;"
b0 F
b0 \
b0 _
b0 >"
b1100 f
b1 P
b1 m
b1 p
0K
0r
1Q
0R
b110 S
b110 X
b110 n
b110 o
b1000011000000000000001100 w
b1001000 =
b1001000 x
b1001000 ""
b110000000000000000 4
b110000000000000000 '"
b110000000000000000 8"
b11 7"
b11 6
b11 `
b11 0"
b11 /"
b11 U
b1011 l
b11 -"
b10 +"
b11 }
b1001000 >
b1001000 y
b1001000 <"
b101100010000110000000000000011 A
b101100010000110000000000000011 u
b1010100 C
b1010100 g
b1010100 :"
b1001000 B
b1001000 c
b1001000 e
b1001000 9"
b1000100 ;
b1000100 d
b1000100 t
b1000100 #"
1!
#150000
b10000 #
b1 *
b1000100 '
b10110100000000010000000000010000 %
b1110 +
0!
#155000
1<
b11 9
b11 ("
b11 @"
06"
b11 F
b11 \
b11 _
b11 >"
b1011 D
b1011 !"
b1011 )"
b0 P
b0 m
b0 p
1H
1s
0Q
1R
b100 S
b100 X
b100 n
b100 o
0I
b1011000000000000001100 w
b1001100 =
b1001100 x
b1001100 ""
b1000 l
b1011 -"
b0 +"
b1011 }
b1001100 >
b1001100 y
b1001100 <"
b100000000010110000000000000011 A
b100000000010110000000000000011 u
b1011000 C
b1011000 g
b1011000 :"
b1001100 B
b1001100 c
b1001100 e
b1001100 9"
b1001000 ;
b1001000 d
b1001000 t
b1001000 #"
1!
#160000
b11 *
b10 )
b1001000 '
b101100010000110000000000000011 %
b1111 +
0!
#165000
b10100 9
b10100 ("
b10100 @"
b10100 F
b10100 \
b10100 _
b10100 >"
b1010000 f
0H
0s
1K
1r
b0 S
b0 X
b0 n
b0 o
1I
b0 D
b0 !"
b0 )"
b100000000000001010000 w
b1010000 =
b1010000 x
b1010000 ""
b101000000000000000000 4
b101000000000000000000 '"
b101000000000000000000 8"
b10100 7"
b10100 6
b10100 `
b10100 0"
b10100 /"
b10100 U
b101101 l
b100 -"
b100 }
b1010000 >
b1010000 y
b1010000 <"
b10110100000001000000000000010100 A
b10110100000001000000000000010100 u
b10100000 C
b10100000 g
b10100000 :"
b1010000 B
b1010000 c
b1010000 e
b1010000 9"
b1001100 ;
b1001100 d
b1001100 t
b1001100 #"
1!
#170000
b1011 *
b0 )
b1001100 '
b100000000010110000000000000011 %
b10000 +
0!
#175000
0<
b0 9
b0 ("
b0 @"
16"
0;"
b0 F
b0 \
b0 _
b0 >"
b1000 f
b1 P
b1 m
b1 p
0K
0r
1Q
0R
b110 S
b110 X
b110 n
b110 o
b1000101000000000000001000 w
b1010100 =
b1010100 x
b1010100 ""
b100000000000000000 4
b100000000000000000 '"
b100000000000000000 8"
b10 7"
b10 6
b10 `
b10 0"
b10 /"
b10 U
b1011 l
b101 -"
b10 +"
b101 }
b1010100 >
b1010100 y
b1010100 <"
b101100010001010000000000000010 A
b101100010001010000000000000010 u
b1011100 C
b1011100 g
b1011100 :"
b1010100 B
b1010100 c
b1010100 e
b1010100 9"
b1010000 ;
b1010000 d
b1010000 t
b1010000 #"
1!
#180000
b100 $
b10100 #
b100 *
b1010000 '
b10110100000001000000000000010100 %
b10001 +
0!
#185000
1<
b11 9
b11 ("
b11 @"
06"
b11 F
b11 \
b11 _
b11 >"
b1100 D
b1100 !"
b1100 )"
b1100 f
b0 P
b0 m
b0 p
1H
1s
0Q
1R
b100 S
b100 X
b100 n
b100 o
0I
b1100000000000000001100 w
b1011000 =
b1011000 x
b1011000 ""
b110000000000000000 4
b110000000000000000 '"
b110000000000000000 8"
b11 7"
b11 6
b11 `
b11 0"
b11 /"
b11 U
b1000 l
b1100 -"
b0 +"
b1100 }
b1011000 >
b1011000 y
b1011000 <"
b100000000011000000000000000011 A
b100000000011000000000000000011 u
b1100100 C
b1100100 g
b1100100 :"
b1011000 B
b1011000 c
b1011000 e
b1011000 9"
b1010100 ;
b1010100 d
b1010100 t
b1010100 #"
1!
#190000
b101 *
b10 )
b1011100 '
b101100010001010000000000000010 %
b10010 +
0!
#195000
b11000 9
b11000 ("
b11000 @"
b11000 F
b11000 \
b11000 _
b11000 >"
b1100000 f
0H
0s
1K
1r
b0 S
b0 X
b0 n
b0 o
1I
b0 D
b0 !"
b0 )"
b100000000000001100000 w
b1011100 =
b1011100 x
b1011100 ""
b110000000000000000000 4
b110000000000000000000 '"
b110000000000000000000 8"
b11000 7"
b11000 6
b11000 `
b11000 0"
b11000 /"
b11000 U
b101101 l
b100 -"
b100 }
b1011100 >
b1011100 y
b1011100 <"
b10110100000001000000000000011000 A
b10110100000001000000000000011000 u
b10111100 C
b10111100 g
b10111100 :"
b1011100 B
b1011100 c
b1011100 e
b1011100 9"
b1011000 ;
b1011000 d
b1011000 t
b1011000 #"
1!
#200000
b1101 *
b0 )
b1100000 '
b100000000011010000000000000011 %
b10011 +
0!
#205000
b11 9
b11 ("
b11 @"
b1101 D
b1101 !"
b1101 )"
b11 F
b11 \
b11 _
b11 >"
b1100 f
1H
1s
0K
0r
b100 S
b100 X
b100 n
b100 o
0I
b1101000000000000001100 w
b1100000 =
b1100000 x
b1100000 ""
b110000000000000000 4
b110000000000000000 '"
b110000000000000000 8"
b11 7"
b11 6
b11 `
b11 0"
b11 /"
b11 U
b1000 l
b1101 -"
b1101 }
b1100000 >
b1100000 y
b1100000 <"
b100000000011010000000000000011 A
b100000000011010000000000000011 u
b1101100 C
b1101100 g
b1101100 :"
b1100000 B
b1100000 c
b1100000 e
b1100000 9"
b1011100 ;
b1011100 d
b1011100 t
b1011100 #"
1!
#210000
b11100 #
b100 *
b1100100 '
b10110100000001000000000000011100 %
b10100 +
0!
#215000
b11100 9
b11100 ("
b11100 @"
b11100 F
b11100 \
b11100 _
b11100 >"
b1110000 f
0H
0s
1K
1r
b0 S
b0 X
b0 n
b0 o
1I
b0 D
b0 !"
b0 )"
b100000000000001110000 w
b1100100 =
b1100100 x
b1100100 ""
b111000000000000000000 4
b111000000000000000000 '"
b111000000000000000000 8"
b11100 7"
b11100 6
b11100 `
b11100 0"
b11100 /"
b11100 U
b101101 l
b100 -"
b100 }
b1100100 >
b1100100 y
b1100100 <"
b10110100000001000000000000011100 A
b10110100000001000000000000011100 u
b11010100 C
b11010100 g
b11010100 :"
b1100100 B
b1100100 c
b1100100 e
b1100100 9"
b1100000 ;
b1100000 d
b1100000 t
b1100000 #"
1!
#220000
b1110100 '
b1000000000000000000000011101 %
b10101 +
0!
#225000
b0 9
b0 ("
b0 @"
b0 F
b0 \
b0 _
b0 >"
b1110100 f
1M
0K
0r
0R
b110 S
b110 X
b110 n
b110 o
b1110100 w
b1110100 =
b1110100 x
b1110100 ""
b111010000000000000000 4
b111010000000000000000 '"
b111010000000000000000 8"
b11101 7"
b11101 6
b11101 `
b11101 0"
b11101 /"
b11101 U
b10 l
b0 -"
b0 }
b1101000 >
b1101000 y
b1101000 <"
b1000000000000000000000011101 A
b1000000000000000000000011101 u
b11011100 C
b11011100 g
b11011100 :"
b1101000 B
b1101000 c
b1101000 e
b1101000 9"
b1100100 ;
b1100100 d
b1100100 t
b1100100 #"
1!
#230000
b1111 (
b11 *
b101 )
b1111000 '
b101000110111100000110000 %
b10110 +
0!
#235000
1="
b1111000 =
b1111000 x
b1111000 ""
b11110000011000000 f
b1 T
b1 W
b1 [
1Y
0M
1H
1s
b10 S
b10 X
b10 n
b10 o
b1111 D
b1111 !"
b1111 )"
b10100011011110000011000000 w
b1111000001100000000000000000000 4
b1111000001100000000000000000000 '"
b1111000001100000000000000000000 8"
b111100000110000 7"
b111100000110000 6
b111100000110000 `
b111100000110000 0"
b111100000110000 /"
b110000 U
b0 l
b11 -"
b101 +"
b1111 ~
b11 }
b1111000 >
b1111000 y
b1111000 <"
b101000110111100000110000 A
b101000110111100000110000 u
b11110000100111000 C
b11110000100111000 g
b11110000100111000 :"
b1111000 B
b1111000 c
b1111000 e
b1111000 9"
b1110100 ;
b1110100 d
b1110100 t
b1110100 #"
1!
#240000
b100100 #
b100 *
b0 )
b1111100 '
b10110100000001000000000000100100 %
b10111 +
0!
#245000
b100100 9
b100100 ("
b100100 @"
0="
b100100 F
b100100 \
b100100 _
b100100 >"
b10010000 f
b0 T
b0 W
b0 [
0Y
0H
0s
1K
1r
1R
b0 S
b0 X
b0 n
b0 o
b0 D
b0 !"
b0 )"
b100000000000010010000 w
b1111100 =
b1111100 x
b1111100 ""
b1001000000000000000000 4
b1001000000000000000000 '"
b1001000000000000000000 8"
b100100 7"
b100100 6
b100100 `
b100100 0"
b100100 /"
b100100 U
b101101 l
b100 -"
b0 +"
b0 ~
b100 }
b1111100 >
b1111100 y
b1111100 <"
b10110100000001000000000000100100 A
b10110100000001000000000000100100 u
b100001100 C
b100001100 g
b100001100 :"
b1111100 B
b1111100 c
b1111100 e
b1111100 9"
b1111000 ;
b1111000 d
b1111000 t
b1111000 #"
1!
#250000
b1001011000 +
0!
#255000
b0 9
b0 ("
b0 @"
b0 F
b0 \
b0 _
b0 >"
b0 f
b1 N
b1 V
b1 %"
1Z
1H
1s
0K
0r
0R
b10 S
b10 X
b10 n
b10 o
b0 w
b10000000 =
b10000000 x
b10000000 ""
b0 4
b0 '"
b0 8"
b0 7"
b0 6
b0 `
b0 0"
b0 /"
b0 U
b0 l
b0 -"
b0 }
b10000000 >
b10000000 y
b10000000 <"
b0 A
b0 u
b10000000 C
b10000000 g
b10000000 :"
b10000000 B
b10000000 c
b10000000 e
b10000000 9"
b1111100 ;
b1111100 d
b1111100 t
b1111100 #"
1!
#260000
0!
#265000
bx E
bx {
bx *"
bx ?
bx i
bx |
bx &"
x<
x5"
x5
bx :
bx ^
bx $"
bx 9
bx ("
bx @"
bx G
bx 4"
bx ?"
bx00 f
b0 N
b0 V
b0 %"
0Z
x@
bx F
bx \
bx _
bx >"
bx 2"
bx D
bx !"
bx )"
b0xxxxxxxxxxxxxxxxxxxxxxxxxx00 w
b10000100 =
b10000100 x
b10000100 ""
bx 1"
bx0000000000000000 4
bx0000000000000000 '"
bx0000000000000000 8"
bx 7"
bx 6
bx `
bx 0"
bx /"
bx U
bx l
bx 7
bx a
bx h
bx ."
bx -"
bx 8
bx ]
bx ,"
bx +"
bx ~
bx }
b10000100 >
b10000100 y
b10000100 <"
bx A
bx u
bx C
bx g
bx :"
b10000100 B
b10000100 c
b10000100 e
b10000100 9"
b10000000 ;
b10000000 d
b10000000 t
b10000000 #"
1!
