CO_Lab3/ALU_lab3.vcd
$date
	Wed Aug 11 21:55:19 2021
$end
$version
	Icarus Verilog
$end
$timescale
	1ps
$end
$scope module TestBench $end
$var reg 1 ! CLK $end
$var reg 1 " RST $end
$var reg 32 # addr [31:0] $end
$var reg 32 $ data [31:0] $end
$var reg 32 % instruction [31:0] $end
$var reg 4 & k [3:0] $end
$var reg 32 ' pc [31:0] $end
$var reg 5 ( rd [4:0] $end
$var reg 5 ) rs [4:0] $end
$var reg 5 * rt [4:0] $end
$var integer 32 + count [31:0] $end
$var integer 32 , error_record [31:0] $end
$var integer 32 - handle [31:0] $end
$var integer 32 . i [31:0] $end
$var integer 32 / initail_error [31:0] $end
$var integer 32 0 j [31:0] $end
$var integer 32 1 mode [31:0] $end
$var integer 32 2 score [31:0] $end
$scope module cpu $end
$var wire 1 ! clk_i $end
$var wire 1 3 jump $end
$var wire 1 4 overflow $end
$var wire 1 " rst_n $end
$var wire 32 5 zero_instr [31:0] $end
$var wire 1 6 zero $end
$var wire 32 7 sign_instr [31:0] $end
$var wire 32 8 shift_sign_instr [31:0] $end
$var wire 32 9 shift_instr_o [31:0] $end
$var wire 32 : rt_data [31:0] $end
$var wire 32 ; rs_data [31:0] $end
$var wire 32 < result_Shifter [31:0] $end
$var wire 32 = result_ALU [31:0] $end
$var wire 32 > pc_inst [31:0] $end
$var wire 32 ? next_pc [31:0] $end
$var wire 1 @ mux_zero $end
$var wire 32 A mux_mux_add_add_pc [31:0] $end
$var wire 32 B mux_add_add_pc [31:0] $end
$var wire 32 C mux3_result [31:0] $end
$var wire 1 D jr $end
$var wire 32 E instr_o [31:0] $end
$var wire 32 F add_pc [31:0] $end
$var wire 32 G add_add_pc [31:0] $end
$var wire 5 H Write_reg_j [4:0] $end
$var wire 5 I Write_reg [4:0] $end
$var wire 32 J Write_Data_j [31:0] $end
$var wire 32 K Write_Data [31:0] $end
$var wire 32 L Src_ALU_Shifter [31:0] $end
$var wire 5 M ShamtSrc [4:0] $end
$var wire 1 N RegWrite $end
$var wire 1 O RegDst $end
$var wire 1 P MemtoReg $end
$var wire 1 Q MemWrite $end
$var wire 1 R MemRead $end
$var wire 1 S Jump $end
$var wire 2 T FURslt [1:0] $end
$var wire 32 U DM_result [31:0] $end
$var wire 2 V BranchType [1:0] $end
$var wire 1 W Branch $end
$var wire 1 X ALUSrc $end
$var wire 3 Y ALUOp [2:0] $end
$var wire 4 Z ALUCtrl [3:0] $end
$scope module AC $end
$var wire 6 [ funct_i [5:0] $end
$var wire 1 D jr_o $end
$var wire 2 \ FURslt_o [1:0] $end
$var wire 4 ] ALU_operation_o [3:0] $end
$var wire 3 ^ ALUOp_i [2:0] $end
$var reg 1 _ ALU_operation_o_r $end
$var reg 1 ` FURslt_o_r $end
$upscope $end
$scope module ALU $end
$var wire 4 a ALU_operation_i [3:0] $end
$var wire 1 4 overflow $end
$var wire 1 6 zero $end
$var wire 32 b aluSrc2 [31:0] $end
$var wire 32 c aluSrc1 [31:0] $end
$var reg 32 d result [31:0] $end
$upscope $end
$scope module ALU_src2Src $end
$var wire 1 X select_i $end
$var wire 32 e data_o [31:0] $end
$var wire 32 f data1_i [31:0] $end
$var wire 32 g data0_i [31:0] $end
$upscope $end
$scope module Adder1 $end
$var wire 32 h src2_i [31:0] $end
$var wire 32 i sum_o [31:0] $end
$var wire 32 j src1_i [31:0] $end
$upscope $end
$scope module Adder2 $end
$var wire 32 k src1_i [31:0] $end
$var wire 32 l sum_o [31:0] $end
$var wire 32 m src2_i [31:0] $end
$upscope $end
$scope module DM $end
$var wire 1 ! clk_i $end
$var wire 32 n data_i [31:0] $end
$var wire 32 o addr_i [31:0] $end
$var wire 1 Q MemWrite_i $end
$var wire 1 R MemRead_i $end
$var reg 32 p data_o [31:0] $end
$var integer 32 q i [31:0] $end
$upscope $end
$scope module Decoder $end
$var wire 1 R MemRead_o $end
$var wire 1 Q MemWrite_o $end
$var wire 1 N RegWrite_o $end
$var wire 6 r instr_op_i [5:0] $end
$var wire 1 O RegDst_o $end
$var wire 1 P MemtoReg_o $end
$var wire 1 S Jump_o $end
$var wire 1 W Branch_o $end
$var wire 2 s BranchType_o [1:0] $end
$var wire 1 X ALUSrc_o $end
$var wire 3 t ALUOp_o [2:0] $end
$var reg 3 u ALUOp_o_r [2:0] $end
$var reg 1 X ALUSrc_o_r $end
$var reg 2 v BranchType_o_r [1:0] $end
$var reg 1 W Branch_o_r $end
$var reg 1 S Jump_o_r $end
$var reg 1 w MemRead_o_r $end
$var reg 1 x MemWrite_o_r $end
$var reg 1 P MemtoReg_o_r $end
$var reg 1 O RegDst_o_r $end
$var reg 1 y RegWrite_o_r $end
$upscope $end
$scope module IM $end
$var wire 32 z pc_addr_i [31:0] $end
$var reg 32 { instr_o [31:0] $end
$var integer 32 | i [31:0] $end
$upscope $end
$scope module JUMP $end
$var wire 32 } data1_i [31:0] $end
$var wire 1 S select_i $end
$var wire 32 ~ data_o [31:0] $end
$var wire 32 !" data0_i [31:0] $end
$upscope $end
$scope module Memto $end
$var wire 32 "" data1_i [31:0] $end
$var wire 1 P select_i $end
$var wire 32 #" data_o [31:0] $end
$var wire 32 $" data0_i [31:0] $end
$upscope $end
$scope module Memto_jal $end
$var wire 32 %" data0_i [31:0] $end
$var wire 32 &" data1_i [31:0] $end
$var wire 1 3 select_i $end
$var wire 32 '" data_o [31:0] $end
$upscope $end
$scope module Mux_Write_Reg $end
$var wire 5 (" data0_i [4:0] $end
$var wire 5 )" data1_i [4:0] $end
$var wire 1 O select_i $end
$var wire 5 *" data_o [4:0] $end
$upscope $end
$scope module Mux_Write_Reg_jal $end
$var wire 5 +" data0_i [4:0] $end
$var wire 5 ," data1_i [4:0] $end
$var wire 1 3 select_i $end
$var wire 5 -" data_o [4:0] $end
$upscope $end
$scope module PC $end
$var wire 1 ! clk_i $end
$var wire 1 " rst_n $end
$var wire 32 ." pc_in_i [31:0] $end
$var reg 32 /" pc_out_o [31:0] $end
$upscope $end
$scope module RDdata_Source $end
$var wire 32 0" data0_i [31:0] $end
$var wire 2 1" select_i [1:0] $end
$var wire 32 2" data_o [31:0] $end
$var wire 32 3" data2_i [31:0] $end
$var wire 32 4" data1_i [31:0] $end
$upscope $end
$scope module RF $end
$var wire 5 5" RDaddr_i [4:0] $end
$var wire 32 6" RDdata_i [31:0] $end
$var wire 5 7" RSaddr_i [4:0] $end
$var wire 32 8" RSdata_o [31:0] $end
$var wire 5 9" RTaddr_i [4:0] $end
$var wire 32 :" RTdata_o [31:0] $end
$var wire 1 N RegWrite_i $end
$var wire 1 ! clk_i $end
$var wire 1 " rst_n $end
$upscope $end
$scope module SE $end
$var wire 16 ;" data_i [15:0] $end
$var wire 32 <" data_o [31:0] $end
$upscope $end
$scope module Shamt_Src $end
$var wire 5 =" data0_i [4:0] $end
$var wire 5 >" data1_i [4:0] $end
$var wire 1 ?" select_i $end
$var wire 5 @" data_o [4:0] $end
$upscope $end
$scope module ZERO $end
$var wire 1 6 data0_i $end
$var wire 1 A" data1_i $end
$var wire 1 B" select_i $end
$var wire 1 @ data_o $end
$upscope $end
$scope module ZF $end
$var wire 16 C" data_i [15:0] $end
$var wire 32 D" data_o [31:0] $end
$upscope $end
$scope module addr_jr $end
$var wire 32 E" data0_i [31:0] $end
$var wire 32 F" data1_i [31:0] $end
$var wire 1 D select_i $end
$var wire 32 G" data_o [31:0] $end
$upscope $end
$scope module branch $end
$var wire 32 H" data0_i [31:0] $end
$var wire 32 I" data1_i [31:0] $end
$var wire 1 J" select_i $end
$var wire 32 K" data_o [31:0] $end
$upscope $end
$scope module shifter $end
$var wire 1 L" leftRight $end
$var wire 32 M" sftSrc [31:0] $end
$var wire 5 N" shamt [4:0] $end
$var wire 32 O" result [31:0] $end
$upscope $end
$scope module shifter_left2_1 $end
$var wire 1 P" leftRight $end
$var wire 32 Q" result [31:0] $end
$var wire 32 R" sftSrc [31:0] $end
$var wire 5 S" shamt [4:0] $end
$upscope $end
$scope module shifter_left2_2 $end
$var wire 1 T" leftRight $end
$var wire 32 U" result [31:0] $end
$var wire 32 V" sftSrc [31:0] $end
$var wire 5 W" shamt [4:0] $end
$upscope $end
$upscope $end
$upscope $end
$enddefinitions $end
#0
$dumpvars
b10 W"
bx V"
bx00 U"
0T"
b10 S"
bx R"
bx00 Q"
0P"
bx O"
bx N"
bx M"
xL"
bx K"
xJ"
bx I"
bx H"
bx G"
bx F"
bx E"
bx0000000000000000 D"
bx C"
xB"
0A"
bx @"
0?"
bx >"
bx ="
bx <"
bx ;"
bx :"
bx 9"
bx 8"
bx 7"
bx 6"
bx 5"
bx 4"
bx0000000000000000 3"
bx 2"
b0x 1"
b0 0"
bx /"
bx ."
bx -"
b11111 ,"
bx +"
bx *"
bx )"
bx ("
bx '"
bx &"
bx %"
bx $"
bx #"
bx ""
bx !"
bx ~
bx00 }
b100000 |
bx {
bx z
xy
xx
xw
bx v
bx u
bx t
bx s
bx r
b10000000 q
bx p
bx o
bx n
bx00 m
bx l
bx k
bx j
bx i
b100 h
bx g
bx f
bx e
b0 d
bx c
bx b
b0x a
x`
x_
bx ^
b0x ]
b0x \
bx [
b0x Z
bx Y
xX
xW
bx V
bx U
b0x T
xS
xR
xQ
xP
xO
xN
bx M
bx L
bx K
bx J
bx I
bx H
bx G
bx F
bx E
xD
bx C
bx B
bx A
x@
bx ?
bx >
b0 =
bx <
bx ;
bx :
bx00 9
bx00 8
bx 7
16
bx0000000000000000 5
z4
z3
bx 2
b0 1
bx 0
bx /
b10000000 .
b10 -
bx ,
b0 +
bx *
bx )
bx (
bx '
bx &
b0 %
bx $
bx #
0"
0!
$end
#5000
b0x00 K
b0x00 '"
b0x00 6"
b0 J
b0 #"
b0 %"
b100 ?
b100 ."
b100 G"
b0 C
b0 o
b0 $"
b0 2"
b100 A
b100 ~
b100 E"
bx1 I
bx1 -"
bx1 5"
b1 <
b1 4"
b1 O"
b100 B
b100 !"
b100 K"
0L"
0J"
b0 M
b0 @"
b0 N"
b1000 G
b1000 l
b1000 I"
b0 T
b0 \
b0 1"
0`
b0 Z
b0 ]
b0 a
0_
0D
0S
0P
1N
1y
0Q
0x
0R
0w
0W
1X
b100 Y
b100 ^
b100 t
b100 u
0O
b1 L
b1 b
b1 e
b1 M"
b0 >"
b1 H
b1 *"
b1 +"
b0 ="
b10000000000000000 5
b10000000000000000 3"
b10000000000000000 D"
b1 C"
b100 8
b100 m
b100 U"
b1 7
b1 f
b1 <"
b1 V"
b1 ;"
b1 [
b1000 r
b0 :
b0 g
b0 n
b0 :"
b1 9"
b0 ;
b0 c
b0 8"
b0 F"
b0 7"
b0 )"
b1 ("
b1000000000000000100 }
b10000000000001000000000000000100 9
b10000000000001000000000000000100 Q"
b100000000000010000000000000001 E
b100000000000010000000000000001 {
b100000000000010000000000000001 R"
b100 F
b100 i
b100 k
b100 &"
b100 H"
b0 >
b0 j
b0 z
b0 /"
1!
#10000
b1 *
b0 )
b100000000000010000000000000001 %
b100 '
1"
0!
#15000
b10 <
b10 4"
b10 O"
bx1x I
bx1x -"
bx1x 5"
b1000 ?
b1000 ."
b1000 G"
b10 L
b10 b
b10 e
b10 M"
b10 H
b10 *"
b10 +"
b1000 A
b1000 ~
b1000 E"
b10000000000000001000 }
b100000000000000000 5
b100000000000000000 3"
b100000000000000000 D"
b10 C"
b1000 8
b1000 m
b1000 U"
b10 7
b10 f
b10 <"
b10 V"
b10 ;"
b10 [
b10 9"
b10 ("
b0x000 K
b0x000 '"
b0x000 6"
b1000 B
b1000 !"
b1000 K"
b10000000000010000000000000001000 9
b10000000000010000000000000001000 Q"
b100000000000100000000000000010 E
b100000000000100000000000000010 {
b100000000000100000000000000010 R"
b10000 G
b10000 l
b10000 I"
b1000 F
b1000 i
b1000 k
b1000 &"
b1000 H"
b100 >
b100 j
b100 z
b100 /"
1!
#20000
b10 *
b1000 '
b100000000000100000000000000010 %
b1 +
0!
#25000
bx11 I
bx11 -"
bx11 5"
b1100 ?
b1100 ."
b1100 G"
b11 H
b11 *"
b11 +"
b1100 A
b1100 ~
b1100 E"
b11000000000000001000 }
b11 9"
b11 ("
b0xx00 K
b0xx00 '"
b0xx00 6"
b1100 B
b1100 !"
b1100 K"
b10000000000011000000000000001000 9
b10000000000011000000000000001000 Q"
b100000000000110000000000000010 E
b100000000000110000000000000010 {
b100000000000110000000000000010 R"
b10100 G
b10100 l
b10100 I"
b1100 F
b1100 i
b1100 k
b1100 &"
b1100 H"
b1000 >
b1000 j
b1000 z
b1000 /"
1!
#30000
b11 *
b1100 '
b100000000000110000000000000010 %
b10 +
0!
#35000
b100 <
b100 4"
b100 O"
bx1xx I
bx1xx -"
bx1xx 5"
b10000 ?
b10000 ."
b10000 G"
b100 L
b100 b
b100 e
b100 M"
b100 H
b100 *"
b100 +"
b10000 A
b10000 ~
b10000 E"
b100000000000000010000 }
b1000000000000000000 5
b1000000000000000000 3"
b1000000000000000000 D"
b100 C"
b10000 8
b10000 m
b10000 U"
b100 7
b100 f
b100 <"
b100 V"
b100 ;"
b100 [
b100 9"
b100 ("
b0x0000 K
b0x0000 '"
b0x0000 6"
b10000 B
b10000 !"
b10000 K"
b10000000000100000000000000010000 9
b10000000000100000000000000010000 Q"
b100000000001000000000000000100 E
b100000000001000000000000000100 {
b100000000001000000000000000100 R"
b100000 G
b100000 l
b100000 I"
b10000 F
b10000 i
b10000 k
b10000 &"
b10000 H"
b1100 >
b1100 j
b1100 z
b1100 /"
1!
#40000
b100 *
b10000 '
b100000000001000000000000000100 %
b11 +
0!
#45000
b0 <
b0 4"
b0 O"
bx1x1 I
bx1x1 -"
bx1x1 5"
b10100 ?
b10100 ."
b10100 G"
b0 L
b0 b
b0 e
b0 M"
0X
b10 Y
b10 ^
b10 t
b10 u
1O
b101 H
b101 *"
b101 +"
b10100 A
b10100 ~
b10100 E"
b11001010000001000100 }
b101000000100010000000000000000 5
b101000000100010000000000000000 3"
b101000000100010000000000000000 D"
b10100000010001 C"
b1010000001000100 8
b1010000001000100 m
b1010000001000100 U"
b10100000010001 7
b10100000010001 f
b10100000010001 <"
b10100000010001 V"
b10100000010001 ;"
b10001 [
b0 r
b11 9"
b101 )"
b11 ("
b0x0x00 K
b0x0x00 '"
b0x0x00 6"
b10100 B
b10100 !"
b10100 K"
b11001010000001000100 9
b11001010000001000100 Q"
b110010100000010001 E
b110010100000010001 {
b110010100000010001 R"
b1010000001011000 G
b1010000001011000 l
b1010000001011000 I"
b10100 F
b10100 i
b10100 k
b10100 &"
b10100 H"
b10000 >
b10000 j
b10000 z
b10000 /"
1!
#50000
b101 (
b11 *
b10100 '
b110010100000010001 %
b100 +
0!
#55000
bx I
bx -"
bx 5"
b11000 ?
b11000 ."
b11000 G"
0N
0y
1Q
1x
1X
b0 Y
b0 ^
b0 t
b0 u
b0 H
b0 *"
b0 +"
b11000 A
b11000 ~
b11000 E"
b10000000000000000000 }
b0 5
b0 3"
b0 D"
b0 C"
b0 8
b0 m
b0 U"
b0 7
b0 f
b0 <"
b0 V"
b0 ;"
b0 [
b101101 r
b10 9"
b0 )"
b10 ("
b0xx000 K
b0xx000 '"
b0xx000 6"
b11000 B
b11000 !"
b11000 K"
b11010000000010000000000000000000 9
b11010000000010000000000000000000 Q"
b10110100000000100000000000000000 E
b10110100000000100000000000000000 {
b10110100000000100000000000000000 R"
b11000 G
b11000 l
b11000 I"
b11000 F
b11000 i
b11000 k
b11000 &"
b11000 H"
b10100 >
b10100 j
b10100 z
b10100 /"
1!
#60000
b10 $
b0 #
b10 *
b11000 '
b10110100000000100000000000000000 %
b101 +
0!
#65000
b100 <
b100 4"
b100 O"
b11100 ?
b11100 ."
b11100 G"
b100 L
b100 b
b100 e
b100 M"
b11100 A
b11100 ~
b11100 E"
b101000000000000010000 }
b1000000000000000000 5
b1000000000000000000 3"
b1000000000000000000 D"
b100 C"
b10000 8
b10000 m
b10000 U"
b100 7
b100 f
b100 <"
b100 V"
b100 ;"
b100 [
b101 9"
b101 ("
b0xxx00 K
b0xxx00 '"
b0xxx00 6"
b11100 B
b11100 !"
b11100 K"
b11010000000101000000000000010000 9
b11010000000101000000000000010000 Q"
b10110100000001010000000000000100 E
b10110100000001010000000000000100 {
b10110100000001010000000000000100 R"
b101100 G
b101100 l
b101100 I"
b11100 F
b11100 i
b11100 k
b11100 &"
b11100 H"
b11000 >
b11000 j
b11000 z
b11000 /"
1!
#70000
b11111111111111111111111111111110 $
b100 #
b101 *
b11100 '
b10110100000001010000000000000100 %
b110 +
0!
#75000
bx11x I
bx11x -"
bx11x 5"
b0 <
b0 4"
b0 O"
b0 U
b0 p
b0 ""
b110 H
b110 *"
b110 +"
b100000 ?
b100000 ."
b100000 G"
b0 L
b0 b
b0 e
b0 M"
1P
1N
1y
0Q
0x
1R
1w
0O
b100000 A
b100000 ~
b100000 E"
b110000000000000000000 }
b0 5
b0 3"
b0 D"
b0 C"
b0 8
b0 m
b0 U"
b0 7
b0 f
b0 <"
b0 V"
b0 ;"
b0 [
b101100 r
b110 9"
b110 ("
b0x00000 K
b0x00000 '"
b0x00000 6"
b100000 B
b100000 !"
b100000 K"
b11000000000110000000000000000000 9
b11000000000110000000000000000000 Q"
b10110000000001100000000000000000 E
b10110000000001100000000000000000 {
b10110000000001100000000000000000 R"
b100000 G
b100000 l
b100000 I"
b100000 F
b100000 i
b100000 k
b100000 &"
b100000 H"
b11100 >
b11100 j
b11100 z
b11100 /"
1!
#80000
b0 #
b110 *
b100000 '
b10110000000001100000000000000000 %
b111 +
0!
#85000
bx111 I
bx111 -"
bx111 5"
b100100 ?
b100100 ."
b100100 G"
b111 H
b111 *"
b111 +"
b100100 A
b100100 ~
b100100 E"
b10000111000000000000000000 }
b111 9"
b100 7"
b111 ("
b0x00x00 K
b0x00x00 '"
b0x00x00 6"
b100100 B
b100100 !"
b100100 K"
b11000010000111000000000000000000 9
b11000010000111000000000000000000 Q"
b10110000100001110000000000000000 E
b10110000100001110000000000000000 {
b10110000100001110000000000000000 R"
b100100 G
b100100 l
b100100 I"
b100100 F
b100100 i
b100100 k
b100100 &"
b100100 H"
b100000 >
b100000 j
b100000 z
b100000 /"
1!
#90000
b100 #
b111 *
b100 )
b100100 '
b10110000100001110000000000000000 %
b1000 +
0!
#95000
1@
0B"
1J"
bx1x1 I
bx1x1 -"
bx1x1 5"
b110100 ?
b110100 ."
b110100 G"
b0 V
b0 s
b0 v
0N
0y
0R
0w
1W
0X
b1 Y
b1 ^
b1 t
b1 u
b101 H
b101 *"
b101 +"
b110100 A
b110100 ~
b110100 E"
b1000101000000000000001100 }
b110000000000000000 5
b110000000000000000 3"
b110000000000000000 D"
b11 C"
b1100 8
b1100 m
b1100 U"
b11 7
b11 f
b11 <"
b11 V"
b11 ;"
b11 [
b1010 r
b101 9"
b10 7"
b101 ("
b0x0x000 K
b0x0x000 '"
b0x0x000 6"
b110100 B
b110100 !"
b110100 K"
b10100001000101000000000000001100 9
b10100001000101000000000000001100 Q"
b101000010001010000000000000011 E
b101000010001010000000000000011 {
b101000010001010000000000000011 R"
b110100 G
b110100 l
b110100 I"
b101000 F
b101000 i
b101000 k
b101000 &"
b101000 H"
b100100 >
b100100 j
b100100 z
b100100 /"
1!
#100000
b101 *
b10 )
b101000 '
b101000010001010000000000000011 %
b1001 +
0!
#105000
b1 <
b1 4"
b1 O"
0J"
b1 L
b1 b
b1 e
b1 M"
bx1xx1 I
bx1xx1 -"
bx1xx1 5"
b111000 ?
b111000 ."
b111000 G"
0P
1N
1y
0W
1X
b100 Y
b100 ^
b100 t
b100 u
b1001 H
b1001 *"
b1001 +"
b111000 A
b111000 ~
b111000 E"
b1001000000000000000100 }
b10000000000000000 5
b10000000000000000 3"
b10000000000000000 D"
b1 C"
b100 8
b100 m
b100 U"
b1 7
b1 f
b1 <"
b1 V"
b1 ;"
b1 [
b1000 r
b1001 9"
b0 7"
b1001 ("
b111000 B
b111000 !"
b111000 K"
b0xxx000 K
b0xxx000 '"
b0xxx000 6"
b10000000001001000000000000000100 9
b10000000001001000000000000000100 Q"
b100000000010010000000000000001 E
b100000000010010000000000000001 {
b100000000010010000000000000001 R"
b111100 G
b111100 l
b111100 I"
b111000 F
b111000 i
b111000 k
b111000 &"
b111000 H"
b110100 >
b110100 j
b110100 z
b110100 /"
1!
#110000
b1000 (
b11 *
b101100 '
b10000110100000000010011 %
b1010 +
0!
#115000
b1100 <
b1100 4"
b1100 O"
bx1 I
bx1 -"
bx1 5"
b111100 ?
b111100 ."
b111100 G"
b1100 L
b1100 b
b1100 e
b1100 M"
0N
0y
1Q
1x
b0 Y
b0 ^
b0 t
b0 u
b1 H
b1 *"
b1 +"
b111100 A
b111100 ~
b111100 E"
b1000000000000110000 }
b11000000000000000000 5
b11000000000000000000 3"
b11000000000000000000 D"
b1100 C"
b110000 8
b110000 m
b110000 U"
b1100 7
b1100 f
b1100 <"
b1100 V"
b1100 ;"
b1100 [
b101101 r
b1 9"
b1 ("
b0xxxx00 K
b0xxxx00 '"
b0xxxx00 6"
b111100 B
b111100 !"
b111100 K"
b11010000000001000000000000110000 9
b11010000000001000000000000110000 Q"
b10110100000000010000000000001100 E
b10110100000000010000000000001100 {
b10110100000000010000000000001100 R"
b1101100 G
b1101100 l
b1101100 I"
b111100 F
b111100 i
b111100 k
b111100 &"
b111100 H"
b111000 >
b111000 j
b111000 z
b111000 /"
1!
#120000
b1 $
b1000 #
b1 *
b0 )
b110000 '
b10110100000000010000000000001000 %
b1011 +
0!
#125000
b1 <
b1 4"
b1 O"
bx1x1x I
bx1x1x -"
bx1x1x 5"
b1000000 ?
b1000000 ."
b1000000 G"
b1 L
b1 b
b1 e
b1 M"
1N
1y
0Q
0x
b100 Y
b100 ^
b100 t
b100 u
b1010 H
b1010 *"
b1010 +"
b1000000 A
b1000000 ~
b1000000 E"
b1010000000000000000100 }
b10000000000000000 5
b10000000000000000 3"
b10000000000000000 D"
b1 C"
b100 8
b100 m
b100 U"
b1 7
b1 f
b1 <"
b1 V"
b1 ;"
b1 [
b1000 r
b1010 9"
b1010 ("
b0x000000 K
b0x000000 '"
b0x000000 6"
b1000000 B
b1000000 !"
b1000000 K"
b10000000001010000000000000000100 9
b10000000001010000000000000000100 Q"
b100000000010100000000000000001 E
b100000000010100000000000000001 {
b100000000010100000000000000001 R"
b1000100 G
b1000100 l
b1000100 I"
b1000000 F
b1000000 i
b1000000 k
b1000000 &"
b1000000 H"
b111100 >
b111100 j
b111100 z
b111100 /"
1!
#130000
b1000 *
b100 )
b111100 '
b101000100010000000000000000010 %
b1100 +
0!
#135000
b10000 <
b10000 4"
b10000 O"
bx1 I
bx1 -"
bx1 5"
b1000100 ?
b1000100 ."
b1000100 G"
b10000 L
b10000 b
b10000 e
b10000 M"
0N
0y
1Q
1x
b0 Y
b0 ^
b0 t
b0 u
b1 H
b1 *"
b1 +"
b1000100 A
b1000100 ~
b1000100 E"
b1000000000001000000 }
b100000000000000000000 5
b100000000000000000000 3"
b100000000000000000000 D"
b10000 C"
b1000000 8
b1000000 m
b1000000 U"
b10000 7
b10000 f
b10000 <"
b10000 V"
b10000 ;"
b10000 [
b101101 r
b1 9"
b1 ("
b0x000x00 K
b0x000x00 '"
b0x000x00 6"
b1000100 B
b1000100 !"
b1000100 K"
b11010000000001000000000001000000 9
b11010000000001000000000001000000 Q"
b10110100000000010000000000010000 E
b10110100000000010000000000010000 {
b10110100000000010000000000010000 R"
b10000100 G
b10000100 l
b10000100 I"
b1000100 F
b1000100 i
b1000100 k
b1000100 &"
b1000100 H"
b1000000 >
b1000000 j
b1000000 z
b1000000 /"
1!
#140000
b1010 *
b0 )
b1000000 '
b100000000010100000000000000001 %
b1101 +
0!
#145000
0@
b0 <
b0 4"
b0 O"
1B"
0J"
bx11 I
bx11 -"
bx11 5"
b1001000 ?
b1001000 ."
b1001000 G"
b0 L
b0 b
b0 e
b0 M"
b1 V
b1 s
b1 v
0Q
0x
1W
0X
b110 Y
b110 ^
b110 t
b110 u
b11 H
b11 *"
b11 +"
b1001000 A
b1001000 ~
b1001000 E"
b1000011000000000000001100 }
b110000000000000000 5
b110000000000000000 3"
b110000000000000000 D"
b11 C"
b1100 8
b1100 m
b1100 U"
b11 7
b11 f
b11 <"
b11 V"
b11 ;"
b11 [
b1011 r
b11 9"
b10 7"
b11 ("
b0x00x000 K
b0x00x000 '"
b0x00x000 6"
b1001000 B
b1001000 !"
b1001000 K"
b10110001000011000000000000001100 9
b10110001000011000000000000001100 Q"
b101100010000110000000000000011 E
b101100010000110000000000000011 {
b101100010000110000000000000011 R"
b1010100 G
b1010100 l
b1010100 I"
b1001000 F
b1001000 i
b1001000 k
b1001000 &"
b1001000 H"
b1000100 >
b1000100 j
b1000100 z
b1000100 /"
1!
#150000
b10000 #
b1 *
b1000100 '
b10110100000000010000000000010000 %
b1110 +
0!
#155000
b11 <
b11 4"
b11 O"
b11 L
b11 b
b11 e
b11 M"
bx1x11 I
bx1x11 -"
bx1x11 5"
b1001100 ?
b1001100 ."
b1001100 G"
1N
1y
0W
1X
b100 Y
b100 ^
b100 t
b100 u
b1011 H
b1011 *"
b1011 +"
b1001100 A
b1001100 ~
b1001100 E"
b1011000000000000001100 }
b1000 r
b1011 9"
b0 7"
b1011 ("
b0x00xx00 K
b0x00xx00 '"
b0x00xx00 6"
b1001100 B
b1001100 !"
b1001100 K"
b10000000001011000000000000001100 9
b10000000001011000000000000001100 Q"
b100000000010110000000000000011 E
b100000000010110000000000000011 {
b100000000010110000000000000011 R"
b1011000 G
b1011000 l
b1011000 I"
b1001100 F
b1001100 i
b1001100 k
b1001100 &"
b1001100 H"
b1001000 >
b1001000 j
b1001000 z
b1001000 /"
1!
#160000
b11 *
b10 )
b1001000 '
b101100010000110000000000000011 %
b1111 +
0!
#165000
b10100 <
b10100 4"
b10100 O"
bx1xx I
bx1xx -"
bx1xx 5"
b1010000 ?
b1010000 ."
b1010000 G"
b10100 L
b10100 b
b10100 e
b10100 M"
0N
0y
1Q
1x
b0 Y
b0 ^
b0 t
b0 u
b100 H
b100 *"
b100 +"
b1010000 A
b1010000 ~
b1010000 E"
b100000000000001010000 }
b101000000000000000000 5
b101000000000000000000 3"
b101000000000000000000 D"
b10100 C"
b1010000 8
b1010000 m
b1010000 U"
b10100 7
b10100 f
b10100 <"
b10100 V"
b10100 ;"
b10100 [
b101101 r
b100 9"
b100 ("
b0x0x0000 K
b0x0x0000 '"
b0x0x0000 6"
b1010000 B
b1010000 !"
b1010000 K"
b11010000000100000000000001010000 9
b11010000000100000000000001010000 Q"
b10110100000001000000000000010100 E
b10110100000001000000000000010100 {
b10110100000001000000000000010100 R"
b10100000 G
b10100000 l
b10100000 I"
b1010000 F
b1010000 i
b1010000 k
b1010000 &"
b1010000 H"
b1001100 >
b1001100 j
b1001100 z
b1001100 /"
1!
#170000
b1011 *
b0 )
b1001100 '
b100000000010110000000000000011 %
b10000 +
0!
#175000
b0 <
b0 4"
b0 O"
bx1x1 I
bx1x1 -"
bx1x1 5"
b1010100 ?
b1010100 ."
b1010100 G"
b0 L
b0 b
b0 e
b0 M"
0Q
0x
1W
0X
b110 Y
b110 ^
b110 t
b110 u
b101 H
b101 *"
b101 +"
b1010100 A
b1010100 ~
b1010100 E"
b1000101000000000000001000 }
b100000000000000000 5
b100000000000000000 3"
b100000000000000000 D"
b10 C"
b1000 8
b1000 m
b1000 U"
b10 7
b10 f
b10 <"
b10 V"
b10 ;"
b10 [
b1011 r
b101 9"
b10 7"
b101 ("
b0x0x0x00 K
b0x0x0x00 '"
b0x0x0x00 6"
b1010100 B
b1010100 !"
b1010100 K"
b10110001000101000000000000001000 9
b10110001000101000000000000001000 Q"
b101100010001010000000000000010 E
b101100010001010000000000000010 {
b101100010001010000000000000010 R"
b1011100 G
b1011100 l
b1011100 I"
b1010100 F
b1010100 i
b1010100 k
b1010100 &"
b1010100 H"
b1010000 >
b1010000 j
b1010000 z
b1010000 /"
1!
#180000
b100 $
b10100 #
b100 *
b1010000 '
b10110100000001000000000000010100 %
b10001 +
0!
#185000
b11 <
b11 4"
b11 O"
b11 L
b11 b
b11 e
b11 M"
bx11xx I
bx11xx -"
bx11xx 5"
b1011000 ?
b1011000 ."
b1011000 G"
1N
1y
0W
1X
b100 Y
b100 ^
b100 t
b100 u
b1100 H
b1100 *"
b1100 +"
b1011000 A
b1011000 ~
b1011000 E"
b1100000000000000001100 }
b110000000000000000 5
b110000000000000000 3"
b110000000000000000 D"
b11 C"
b1100 8
b1100 m
b1100 U"
b11 7
b11 f
b11 <"
b11 V"
b11 ;"
b11 [
b1000 r
b1100 9"
b0 7"
b1100 ("
b0x0xx000 K
b0x0xx000 '"
b0x0xx000 6"
b1011000 B
b1011000 !"
b1011000 K"
b10000000001100000000000000001100 9
b10000000001100000000000000001100 Q"
b100000000011000000000000000011 E
b100000000011000000000000000011 {
b100000000011000000000000000011 R"
b1100100 G
b1100100 l
b1100100 I"
b1011000 F
b1011000 i
b1011000 k
b1011000 &"
b1011000 H"
b1010100 >
b1010100 j
b1010100 z
b1010100 /"
1!
#190000
b101 *
b10 )
b1011100 '
b101100010001010000000000000010 %
b10010 +
0!
